6046_6349_208_276_4643_1085_1539_4986_7006_5374_252_4751_226_6757_7495_2923
1432_1538_1761_1658_104_826_806_109_939_886_1497_280_1412_127_1651_156
244_1048_133_232_226_1072_883_1045_1130_252_1038_1022_471_70_1222_957
87_172_93_73_67_192_249_239_155_23_189_106_55_174_181_116
5871_204_6466_6437_5716_232_1513_7079_6140_268_350_6264_6420_3904_272_5565
1093_838_90_1447_1224_744_1551_59_328_1575_1544_1360_71_1583_75_370
213_166_7601_6261_247_210_4809_6201_6690_6816_7776_2522_5618_580_2236_3598
92_168_96_132_196_157_116_94_253_128_60_167_192_156_76_148
187_111_141_143_45_132_140_402_134_227_342_276_449_148_170_348
1894_1298_1531_1354_1801_974_85_93_1712_130_1705_110_314_107_449_350
1662_1529_784_1704_1187_83_422_146_147_1869_1941_110_525_1293_158_1752
162_1135_3278_1149_3546_3686_182_149_119_1755_3656_2126_244_3347_157_865
2049_6396_4111_6702_251_669_1491_245_210_4314_6265_694_5131_228_6195_6090
458_448_324_235_69_79_94_78_515_68_380_64_440_508_503_452
198_216_5700_4212_2370_143_5140_190_4934_539_5054_3707_6121_5211_549_2790
3021_3407_218_1043_449_214_1594_3244_3097_286_114_223_1214_3102_257_3345