1000
8917 7
14d12+8754 14d8+8903 18d20+8618 17d10 10d10+8885 6d8+8886 15d10-9405
8262 9
17d20+8026 14d6+8229 8d20+8168 16d10+8230 13d4+8213 12d20+8174 17d10+8093 19d20+7969 16d12+4517
6728 5
6d12+5522 7d10+6701 17d20+6587 15d12+2916 5d4-4854
8021 2
19d20+7845 1d6+9373
2879 8
16d12+2755 17d12+2696 7d4 17d12 14d4+2835 17d20+2782 5d12+2858 14d4+2846
4564 10
17d8 13d12+4411 2d10-1512 13d12+4436 10d12 11d12+4530 18d20+4209 16d20+4383 9d10 20d10+4510
7440 9
16d12+7358 11d6+7386 10d6+7417 18d12+7291 4d20+7378 20d6+7388 5d12-5341 18d20+7132 12d20+7225
9100 5
6d20+9080 20d20+8955 5d4+9080 19d6+9065 20d10+9062
6705 3
19d12+6627 10d10+6689 5d20+6633
8900 4
13d8 16d12+8856 15d8-7403 9d12+8859
1785 7
8d4+1759 17d20+1766 20d4+1724 17d10+1683 1d12+1779 18d20+1652 10d20+1628
2 2
2d4 1d8
5331 7
18d20+5085 9d8+5289 20d10+5193 17d10+5212 16d8+5205 13d4 11d20+5154
4247 6
13d10+4127 19d10+4150 18d20+4016 10d20+4053 14d10+4221 7d20+4223
3563 10
14d4+3532 10d20+3442 14d4 12d10+3550 11d10+3486 20d20+3528 18d10+3541 16d20+3273 9d8+3522 15d20+3369
8322 7
15d4-9498 9d20+8263 4d10 7d12 16d10-907 13d12+8195 20d20+7991
5162 10
20d4+9134 7d10+5148 11d20+5047 13d10+3937 9d10+5073 12d20+5057 13d10-6897 19d12+5022 17d6+5068 11d20+5116
3123 9
3d10+3094 11d12-8390 13d20+2933 19d10+3091 17d12+2932 6d20+3026 9d20+2973 1d8-7824 14d20+2971
5350 4
13d10 17d20+5125 12d8+5336 2d10
3834 5
20d20+3614 10d20+3655 19d6+3794 16d6 13d10+3722
4348 2
15d10 15d12+4209
1903 3
17d6+1875 12d8+1828 2d20-7891
4324 4
11d10 11d12+4213 13d12+4229 14d20+4115
5696 5
11d6+5640 17d20+5466 16d12+5615 20d8+5577 14d10+5557
1795 4
17d6+1733 15d6+1706 1d10-7571 11d8+1740
6055 5
18d8+5949 19d8+6031 5d4 15d8-8277 2d20+8366
3448 9
13d12+9944 12d4+3435 10d4+3423 20d20+3340 4d20+4351 18d20+3330 12d20+3388 5d8 18d12
5061 7
12d20+4871 5d10 15d20+5018 12d20+4967 11d6+5001 13d12+5013 8d20+5002
6721 10
17d6+6673 14d10+6629 10d20+6687 9d20+6690 12d20+6600 16d8+6658 12d12+6638 11d20+6698 5d20 8d6+6713
7490 8
15d10+5292 13d10+7361 5d10+7469 17d20 1d8 9d20+7373 19d12+7414 15d8+7386
5173 10
9d6 13d6+5105 12d12+5079 15d4+5136 14d20+4931 7d8 10d20+5106 20d4+5120 17d12+5048 19d20+4972
4675 7
9d12+4589 6d10+4656 8d8+4615 14d10+4659 19d20+4297 20d20+4474 17d10+4524
8220 3
1d10 17d20+8156 18d6+8183
7646 7
7d12+1598 19d4+7582 15d6+7574 13d12 19d8+7593 11d4+7624 9d10-7172
4784 6
18d4+4731 19d4 9d10+4774 10d20+4680 15d6+4695 10d10
9993 10
19d4 17d10+9886 16d20+9843 19d10+9918 17d12+9814 6d20+9931 15d8+5427 10d12+9901 6d12 4d10+5036
8420 2
18d20+8168 13d20+8257
2987 9
6d20+2940 19d20+2649 13d12+2953 19d8-6156 4d8 12d12+2917 13d8+2928 19d6+2950 4d8-5955
3972 2
18d12+3896 12d20+3960
2732 7
14d20+2541 13d12 11d4+2696 18d4+2688 20d6+2614 18d20+2575 6d20+2715
6524 4
8d10+6515 7d12+6481 11d8-4643 20d12+6499
2213 4
19d6+2160 15d20+2039 16d8+2108 20d20+2123
4589 6
20d12+4514 7d20+4523 14d20+4448 9d12+4520 19d8+7407 20d20+4480
6884 9
17d12+6687 16d10+6789 19d20+6735 20d8+6794 20d20+6681 1d4 12d6-2156 11d12+6805 9d6
8490 5
13d8+8436 10d4-3812 17d20+8463 4d8 2d8+6841
7534 3
19d10+7439 7d8+7496 14d12+7499
5027 8
3d12+4995 11d20+5012 2d6+5025 12d8+4953 12d6+4960 13d4+5011 5d10+5011 10d10
2383 4
4d12+2367 18d12 14d10 16d8+2329
7568 9
18d10+7433 15d20 20d20+7172 10d8+7608 19d20+7479 20d20+7310 2d20+7555 14d20+7471 9d12+7467
928 3
20d20+662 14d8 11d6-1473
7357 9
15d20-2090 17d20+7159 7d20+7242 3d10+7340 10d12+7299 9d10+7297 13d20+7242 15d10+7276 8d12+7282
3625 3
20d20+3561 18d12+3511 4d4
2154 10
6d10 20d4+2123 14d10+2059 14d12 4d12+2115 13d8+2132 10d10 16d12+2072 16d4 1d6
9839 4
9d12+9823 17d12+9718 20d20+9734 8d20
179 9
18d12 19d12 20d20 17d12 19d12 11d20 11d20 19d20 14d20
7944 8
14d6+7884 20d6+7849 19d10+7848 6d20+2885 13d6+7915 19d20+7736 10d20+7829 15d12+7836
6271 3
14d20+6145 16d20+6032 16d12
3792 6
6d6+3760 19d20+4159 3d4+3780 10d20+3637 13d20+3683 13d12+3675
4862 5
17d8+4810 13d12+4739 3d10 13d4+4838 7d4
4165 7
17d4+4135 16d8+4094 1d10+4156 17d4+4140 18d20+4129 10d6+9526 17d6+4077
4105 2
15d20 8d12+4086
7674 9
5d6 15d20+7521 15d8+7642 12d10+7654 1d12 19d10+7648 19d10+7646 17d20+7394 17d8+7604
7733 3
13d10-6842 13d12+6916 7d20-3809
7979 9
8d6 15d12+7835 4d20+7916 16d6-6984 2d12-5278 16d8+7934 11d20+7783 1d10+9631 1d20+6880
1929 9
19d20+1569 2d8-1800 14d6+1903 10d12+1815 18d20+1851 19d4 4d8+4573 2d12+1914 4d10+1908
2841 4
13d4+2803 17d12+2718 15d20+2681 14d6+2758
9343 9
11d12+9328 7d10+9279 20d12+9317 1d10+9342 4d8+9331 2d12+9333 10d4+9306 12d20+9295 15d8+9320
6876 4
3d6+6865 18d12 20d8+6762 16d20-8186
2515 9
10d20+2489 17d20+2218 1d4 4d6 11d20+2472 20d20+2419 18d20+2171 12d12+2401 7d12-4670
772 7
4d20 11d8+721 13d12+759 13d20+703 19d8+629 3d20+740 17d8+708
208 9
18d20 16d20 20d12 20d20 16d20 17d20 13d20 19d12 18d20
9168 6
19d12 20d12+9033 14d8+9132 20d10+9142 16d12 14d6+9115
4772 10
8d20+4699 12d10 18d12+4701 8d10 16d8 11d12+4747 2d12-2169 4d4+4767 20d20+4400 15d6+4698
4793 4
19d10+4680 14d12+4695 20d8+4708 8d12+4721
7461 6
16d12+7401 3d8+7439 16d20+7294 12d8+7436 20d6+7353 3d10+7450
1292 7
14d20+1139 7d20+1204 16d6+403 7d12+1275 10d8+1271 11d20+1239 4d6-5124
5500 6
12d6+5432 18d20 19d20+838 7d4+5475 12d20+5349 19d8+5433
247 8
18d20 20d20 16d20 15d20 15d20 17d20 13d20 11d20+218
1439 7
3d10 15d10+1330 19d12+1303 7d8+1384 10d6+1403 9d6 19d12+1270
6815 6
12d6+6775 12d8+6772 15d12+6650 14d8-6567 16d20+6546 14d12+6659
9539 5
7d8 20d6+3375 9d10+9499 18d20+8291 4d10+9516
2485 3
7d10+2477 8d20+2428 12d10
1524 9
14d10+1443 20d20+1345 8d4+1515 20d12+1322 11d20 20d20+1343 12d20+1310 15d20+1234 17d8+1435
8816 4
13d10+8724 13d20+8664 8d8+8787 9d8
4397 5
18d10+4217 17d10+4367 11d12+4355 8d20+4319 12d12+4267
6191 9
1d10 16d8+6165 12d10+869 13d12+6117 14d20+6138 5d8-8840 6d12-3459 12d10+6130 9d4
8846 2
13d20 12d20+8789
4596 6
19d20+4411 12d10+4552 17d10+4541 14d20+4467 13d12+4466 4d20+4544
1117 5
5d20+1047 19d12+927 9d8+1076 17d12 12d20
7052 3
17d8+6943 18d8+6917 17d8+6916
3550 3
12d8+3457 8d6+3541 20d10+3389
6211 5
18d20+5859 20d12+6024 10d8+1254 10d8+6139 18d20+6127
6612 10
17d12+6491 17d20+6370 2d20+6584 6d8 19d12 16d12+6450 14d20+6388 14d10+6598 15d20+6470 13d4+6575
6446 5
15d10+7962 4d10+2922 14d20+6208 19d12+6299 13d20+6335
4017 10
4d10+4010 17d6 7d8+4006 19d8+3955 7d20+3901 20d6+3951 15d20+3980 19d20+3855 12d6 9d20+3995
1033 5
20d20+807 16d20+905 18d8+972 8d20+923 4d12+1009
7507 3
19d4+7462 5d8 19d4
4497 4
12d8+4417 14d20 20d8+4398 20d8+4403
4465 7
17d4+4403 9d6+4453 14d20+4426 1d8 6d4+4451 15d8+4388 14d20+4322
3969 6
20d6+3921 18d6 13d20+3724 3d20+3939 18d8+3836 18d20+3915
3689 4
20d12+3533 16d10+3537 13d20+3515 14d6+3671
710 6
11d12+604 13d8+623 15d20+1358 19d6+597 10d8+643 12d20+511
9265 6
18d10+9155 16d8+9212 14d6 20d10-8296 13d12+9168 13d10
8484 2
11d12+8416 7d12+266
6789 9
14d12+6644 14d20 15d12+6660 18d20+6700 13d6+3361 12d4-632 14d12 17d20+6747 17d10+6650
8793 3
15d6+8221 11d8+8736 8d12+8708
3451 10
12d20+3393 20d20+3222 6d20+3438 14d4+3407 14d4-8473 19d6+3430 8d20+3305 2d4+3449 14d20+3280 15d20+3291
8786 6
7d20+8723 9d6+8734 13d20+8722 2d8 18d6+8710 15d4
2725 6
15d20+2469 16d8+2603 6d4+2702 20d12+2618 11d20+5768 16d6+2696
8850 3
6d10+8792 11d20+8812 19d4+8779
1251 5
18d10+1232 7d20+1113 3d6-4862 17d10 4d20-6014
8433 6
16d20+8123 16d8+8400 16d20+8399 16d20+8330 8d8+8386 20d8+8393
5615 6
15d20+5404 19d6+5556 10d20+5573 8d4 3d20+7646 12d8+5588
4619 10
11d20+4563 19d4 12d20+4515 8d10 3d20+4590 16d20+4600 18d20+4404 7d4+2772 5d8 8d6+4597
5497 6
5d20+5488 1d8+5489 12d10 16d6+5425 17d20+5320 13d12+5392
2576 9
12d20+2354 16d10+2460 10d6 20d8+2460 18d6+2537 11d6-953 16d12+2393 19d20+2223 16d4
8213 7
14d8+8179 15d6+8123 15d20+7942 19d20+7983 17d20-2434 15d6+8125 5d6+8199
164 10
20d10 11d20 9d20 16d12 16d20 19d20 17d10 19d20 20d20 19d12
6704 5
17d12 10d4+6680 15d10+6579 2d12+3589 20d8
1256 7
2d20-8933 10d12-1093 8d6+1219 13d20+1182 13d8+3981 2d8+1251 19d6+1220
2810 6
9d4+2801 13d12 14d12+2679 12d6-4709 20d12+2597 16d4
990 10
12d20+902 15d20+703 10d20+845 14d8 6d12+9595 12d8+928 15d6+935 20d12+875 14d20 18d6
5853 9
7d4+5828 9d4+9139 11d4+5825 12d10-3067 12d20+5679 15d8+9034 6d4 15d10 18d20
5918 9
6d20+5827 14d6+5836 3d12-1500 14d10+5793 19d12+5845 12d20+5804 11d10+737 15d20+5764 6d8
8545 5
16d4+2235 20d20+8234 16d6+8449 15d8-147 2d12
2846 2
17d20+2733 13d4+9279
939 6
3d12+911 12d20+792 20d20+778 17d20+606 20d20+636 7d6+909
8902 6
14d20+8804 19d10+8742 10d8+5940 20d8+8768 4d6+8894 14d12+8843
2188 8
14d20+1941 12d12+2124 15d12+2145 18d10+2091 11d10+2080 20d20+1812 7d8 10d6+2137
4204 3
1d6 17d12+4136 20d20+3870
2740 4
19d10+2619 11d10+2677 17d12+2570 11d20
54 3
15d20 13d12 8d10
5548 9
9d10+5490 7d20+5442 6d4 12d6+5535 4d6+6087 5d12 17d20+5468 12d8+5505 20d20+5445
8708 4
19d12+8541 8d20+8673 5d12 13d4-2912
6832 8
20d8+272 15d4+6809 14d20+6735 14d12+6749 11d10+3757 19d12+6636 17d10+9211 9d20+6814
6679 9
20d4-6580 20d10 18d10+6523 19d10+6567 12d6+70 9d20+6526 14d20+6656 15d20+6391 10d20
9480 7
19d6+9390 16d10+9348 10d4+9459 16d8+9432 19d20+9260 4d12+9461 19d12+9357
8172 9
12d20+8019 19d20+7870 18d20+7818 4d6 18d20+8055 16d20+8034 15d4 11d6-1116 6d8+9799
7939 8
20d4+7895 12d20+7746 15d4 19d8+7843 4d10 4d8+7921 18d20+7633 16d8+7899
1402 9
18d10 1d8+3996 14d20+1343 20d10+1247 15d8+1380 4d4+3142 3d10 17d20+1272 12d12+1312
3688 6
17d10+3659 17d8+3591 13d20+3644 16d8 12d10 2d8
1106 5
20d20+973 7d6+1093 19d6+997 17d8+1025 15d10+963
9194 4
9d20+9039 6d20+9098 10d4 17d20+8863
3205 8
16d6+3176 7d10 20d4+3150 12d6 5d6 7d20+629 18d20+3131 3d12+7870
935 7
10d10+899 3d6-5781 19d20+790 15d6+919 7d20+894 14d20+901 12d20+856
6274 10
12d12+6255 19d20+6205 12d6+6249 18d6+6191 18d20+6017 13d12+6180 10d12+6182 10d10+6246 14d10-7108 9d12-466
8056 10
20d8 18d6 20d8+7929 13d20+8035 14d12+7927 16d6+7995 20d10 15d12+7938 17d12+7974 18d12+7910
8876 7
4d10+8863 6d8+8849 3d6+8655 16d8+8770 14d4+8835 10d6+7752 8d10+8825
476 7
18d4+421 16d12+341 16d20+360 11d10+7728 19d20+244 12d20+252 14d6+2758
2361 9
18d6+2265 7d6+2339 11d12-9041 17d10+2340 17d6+2297 3d4-8568 9d20+2308 12d20+2211 15d20+2328
5378 2
19d12+5359 6d6+5349
8511 2
20d20+8180 14d10+8474
2840 3
20d20+2513 20d20 1d20-5650
2230 10
4d20+2153 5d4+2215 18d6+2205 18d20+1981 19d10+2074 17d20+2091 9d12 7d10 19d20+1990 17d20+2025
1082 5
11d8 16d20+1055 15d10+1051 17d12+886 6d4
2509 10
7d12+6490 8d6+2490 19d6 20d10+2434 6d6+2496 13d10+2406 13d4 8d12+2454 2d8+55 20d12+2346
8846 3
4d8+8822 18d10+8731 9d4
5373 4
19d12+5283 12d20+5156 5d4+5358 18d4+5311
7841 5
11d20+7752 6d4+7825 13d8 10d12+7726 16d10
2742 3
20d6 15d6+2689 18d12+2613
6311 6
9d8+6248 16d20+6041 14d12+6237 6d20 15d6+6239 20d20
6856 5
15d6+6804 17d10+6737 15d12+6764 16d10+6698 19d12+7623
4 9
2d10 2d6 4d6 4d10 4d4 3d4 1d6 2d6 2d10
223 5
18d20 13d20 16d20 18d10+67 15d20
10 4
1d10 1d10+1 1d10+2 1d10+3
7912 5
18d12+7775 14d10+7882 16d12 19d20-7322 19d4-5738
5251 8
14d12+5130 15d20+5062 4d12+5231 10d8-9491 8d8+5208 13d12 20d20+5089 18d20+4998
1155 6
16d20+1076 14d20+900 17d12+1007 6d8+1116 18d20+1131 7d12+1086
6450 8
17d8+6385 13d20+6203 20d4+8246 18d8+6341 6d20+2624 2d4+6444 9d4+5765 7d10+6424
7313 4
10d10 17d20+7125 11d20+7159 15d4-8708
7224 5
17d12+7068 14d20+7197 4d12 18d12+7117 17d20+7202
6915 3
19d12+6879 14d20+6847 8d4
9476 9
14d10+9346 15d8 2d10+2659 6d20+9422 17d20+9333 10d6+9463 17d12+9417 7d12+8024 13d20+9263
2327 2
10d6 20d10+2191
2138 10
3d4+9427 9d8 18d10+2092 20d6+3151 12d8+6789 17d12+1940 11d20+2017 13d12+2053 8d20+2018 16d20+1989
9895 9
16d20+9638 17d8+9858 5d20+9871 12d10 1d20 16d6+9839 19d20+9758 16d10+9839 4d20+9860
6480 2
8d4+2929 20d20+6300
5586 10
3d12-6697 13d20+5402 8d20+5461 1d6 6d6-6667 4d20 2d12+5573 13d20+5369 6d8-6782 18d6+5501
3336 5
13d12+3208 11d20-7534 15d20+3218 16d12 16d20+3099
430 7
12d20+235 20d6+339 14d6+363 19d8+377 4d8+422 14d10+304 15d8+7414
4538 2
13d10+4519 19d12+4400
9821 9
9d20+9703 17d8+9687 7d20+9735 16d10+9793 5d8+9792 11d20+9652 16d20+9740 18d12+9706 1d10-5835
2033 6
5d10+1989 1d10+2023 19d6+1939 10d10+1953 12d12+2018 18d10-5291
5745 10
17d12+5578 10d10 11d12-6821 12d20+2227 2d12+5726 14d6 14d20+5708 17d20+5613 17d10+5674 6d4+5733
4471 6
14d8 20d4+4448 3d8+5173 7d4+5443 20d20+4277 8d6+4450
8834 10
20d12-4942 13d10+8755 2d12+8832 13d8+8799 18d8+8803 8d10 20d20+8556 17d20+8504 20d20+8769 10d20+8817
3430 2
14d8+3386 19d20+3186
1545 10
13d10+1480 17d12+2350 8d12+1510 9d6+1515 2d12+3744 13d4+5307 15d6+1460 4d20+1528 17d20+1333 12d20+1389
6246 4
12d10 10d8+6201 20d12+6167 20d10+6083
7426 6
18d6-9857 14d12+7367 10d12 15d10+7356 9d20 9d10+7373
1642 5
12d20+1497 19d8+1526 15d20+1559 7d10 16d6
2508 10
17d12+2490 6d20+2477 9d12+2414 16d10+2478 3d10 17d10+2340 2d20+2476 14d6+2429 16d6+2485 7d12+2473
8529 10
14d12+8381 17d10+8429 19d6+8492 9d6+8493 11d6+8493 15d10+8389 8d20+8393 5d4+8513 8d12+8455 20d20+8222
1912 9
14d6 19d10-1561 20d20+1853 17d12+1893 10d12+1833 20d4 13d12+1871 14d4 17d12+1795
9764 3
15d10+9664 10d6 16d20+9647
5382 2
18d20+5186 2d20+5354
3625 2
20d20+3601 18d6+3545
608 4
9d10+524 15d20+570 4d20+557 2d4-7396
7367 8
6d20+7275 11d12+7284 8d8 20d8+7294 17d8+7306 18d8+7245 14d6+7349 20d20+7240
5269 7
1d12+5263 13d12+5142 20d4-4723 15d12+5145 13d20+5068 9d12+5219 14d20+5021
1347 3
16d4+1323 13d8+1259 3d20+1342
7398 3
3d8+7375 16d12+7300 17d12+7246
3699 4
8d4 13d10+3624 15d6+3653 17d10+3595
663 3
11d20 17d10+617 18d12+529
7718 3
14d10+7590 14d12-3258 12d8+7658
4315 3
6d10-4649 18d8+4253 4d12
5726 5
16d4 9d20+5684 20d12 1d12+5719 19d20+5525
7155 4
18d20+7029 18d20+6894 20d4+7084 19d8+7108
239 5
18d20 12d20 19d20 12d20 16d20
9011 8
9d10+8972 11d8 8d20+8994 16d20+8710 9d20+8831 20d4+8934 3d10+9008 12d20+8839
8513 2
11d12-9174 19d8+8451
570 5
2d6+568 8d8 11d12+441 19d8+467 8d12+494
4052 3
5d20+4004 15d20+3831 19d20+3863
4055 5
19d8+3951 19d20+3954 13d10+4026 6d4+5572 4d8+4044
3792 10
1d6+2271 8d20+3747 18d8+3766 9d10+3766 8d20+3719 18d8+3755 19d20+6576 16d10+3679 15d8+3719 13d20+3677
6115 7
14d20+5920 14d10 6d4 15d20+5929 18d12+6033 12d20+5908 13d10+6052
5916 3
2d8 9d20+6410 4d20+5846
9908 3
12d20+9777 14d20+9797 11d12+3634
5346 7
7d12+5278 4d10 14d4 17d20+5009 5d6-3045 10d4-4605 11d4-5432
375 4
20d12+153 19d20 19d20 19d20
348 4
20d20 18d20 18d20 18d20
6894 5
2d8+6890 2d12-530 9d20+6782 15d20+3312 8d20+6771
9324 5
17d4+9281 3d10 17d10+9221 17d20 20d6+6219
1720 2
17d20+1482 16d4+1666
8185 5
8d6+8161 19d20+8117 12d6+8161 9d8-7795 11d12
6769 5
15d10+6754 5d20+6704 12d10 2d8+6758 16d6
3700 3
13d12+3604 13d6+3628 12d4+3657
1104 8
18d12+909 16d8+9053 18d10+931 12d12+1080 18d10+1025 5d6 14d20+1035 4d10
6258 4
7d20-3526 10d20+6168 14d20+6022 20d20+5944
5136 4
16d20+4838 20d8+5020 19d20+4760 11d10+5074
1224 6
19d20+1058 4d4+4455 18d10+1080 9d8+1176 19d20+871 3d20
1339 8
11d20+1184 12d12-1833 13d20+1154 10d6+6062 19d20+1292 1d10-2637 13d20+1299 4d10
7361 9
4d6 17d6+7274 20d10+7235 10d10+7928 8d6+7332 18d4-1347 20d8 17d10+7224 19d20
9655 5
14d20+9422 20d12+9434 14d20+9627 6d12-7457 19d12+9588
7154 4
16d20+6929 6d6+7140 19d20+7093 16d8+7029
3902 2
19d20 17d20+3602
68 10
12d8 15d8 16d10 7d12 8d20 14d8 20d8 18d8 14d6+51 18d10
9674 2
19d20+9455 20d10+9583
3055 7
19d12+2871 19d20+2832 16d12+3030 14d4+3028 19d20+2802 8d12 2d8+1881
768 2
17d10+736 4d6+749
4597 6
15d12+4528 4d6+8032 8d6+4574 11d20+4572 6d12+4580 17d20+4541
8668 8
3d8 18d4+8596 9d10+8616 12d12+8608 14d20+8402 19d8+8534 18d20+8582 5d6-9287
2551 10
12d20+2402 11d8+2529 12d20+2493 17d10+2387 8d12 15d20+2343 13d10 7d12+3148 7d20+2524 20d8+2441
2721 8
8d10+2658 16d12+2595 20d8+2697 19d12+2543 12d20 18d8+2577 20d20+2501 19d12+2602
2284 8
19d20+2069 17d4+2243 17d12+2251 19d20+1945 19d20+1920 20d20+1961 17d20+2190 5d8+2264
6850 5
15d6+6812 15d8+6819 15d12+6740 17d8+6789 14d12-6377
5907 4
13d20+5804 20d4+5862 6d20+5828 16d10+5759
7072 2
11d6+7014 18d8+6984
1383 9
19d6+1360 19d8 12d6 20d4+1307 4d20+4690 7d10-6210 14d8+1343 19d8-30 11d4+1361
3463 7
13d12 7d12-8378 3d20+3426 19d6+3370 11d8+5188 18d6+3388 12d20+3271
4882 2
19d8+4754 10d8+4860
9740 8
6d20 15d10+9695 19d8+9619 3d20 6d20+9671 20d6-6451 18d12+9592 18d12+9722
8007 3
11d8+3660 16d10+4854 15d12+7893
5451 8
6d12+5441 12d20+5284 17d10+5432 13d4+9996 7d20-9289 12d20+5415 19d20+5264 10d20+5388
74 6
14d8 18d8 15d8 12d8 17d10 18d10
2803 7
4d20+2785 11d10+2763 11d20+2602 18d8+2739 10d20+2792 14d20+2529 18d20+2303
3894 4
13d20+3680 6d8+3886 20d20+3635 17d12
4860 4
10d20+4707 20d10+4766 9d20+4797 11d12
5919 2
15d12+5852 14d20+5650
7107 10
15d8+7035 19d8+7019 18d8+7014 13d10+6991 6d6-2548 10d20+7012 15d10 16d20+6867 14d12+6991 19d6
6932 10
8d6+6911 17d4 20d8+6837 8d12+6891 19d8+6886 15d20+6827 12d6 17d12+6818 9d12+6861 10d12+6821
7345 6
15d20+7252 7d20+7282 18d10+5534 8d4+7322 16d6+7319 16d12+7165
3835 5
15d12 20d8+3815 20d10+3659 3d6+9170 9d20+3783
4853 4
12d6+4835 11d12+7796 16d4+1771 17d12+4704
3236 3
8d8+3226 20d20+3049 11d12+3224
4430 10
11d8+4418 6d12+1462 20d8 9d8+4419 17d20+4400 18d6+4329 18d4+4386 9d12+4362 4d6 9d8
8920 4
13d20+8888 3d20+8878 19d20+8880 12d12+8893
7613 5
17d20+7274 14d8+7538 7d20+7492 3d4+7606 15d12+7512
9366 7
16d10+9305 15d8 3d10+9360 5d10 19d6+9301 8d8-7254 15d20-3548
9342 8
3d8 13d6+2205 20d12+4769 19d20+9105 19d20+9089 12d10+9222 5d4 12d12+9231
5226 6
20d6 11d6-7992 16d12+5034 11d12+5165 17d10 4d20+9064
1434 10
5d12+1398 5d10-7207 14d12+3190 6d12+1407 13d6+1392 19d4+1388 9d10+1386 18d20+1205 6d10-1296 16d20+1315
8451 9
1d6+7828 11d20+8269 3d8+8442 19d20+8347 13d8-4547 18d8+8323 5d8+8442 17d12+8289 18d12+8419
4293 4
20d12+4090 13d20+4132 8d12+4224 11d12+4243
166 6
19d12 18d12 20d20 20d12 20d12 16d20
5827 6
8d20+5752 11d10+2718 16d8-4234 7d20 3d10+5822 16d20+5647
6509 9
5d6+6504 17d10 5d12+6470 17d12+6357 17d20-7469 15d12+6442 1d4 9d20+6441 1d12-6822
2010 4
17d20+1816 7d10+2003 6d20 10d6+1974
6196 6
18d12+6150 14d8 15d20+6081 4d8+6187 9d20+6021 17d20+6077
8951 8
16d20 11d20+8838 10d8 20d20+8719 20d4+4784 12d8-1515 8d6+8905 13d20+8883
8424 3
3d4+6068 13d4+6878 19d12+8316
291 3
18d20 15d20 19d20
5782 8
15d20 9d20 11d10+5760 4d8-3713 14d20+5592 7d20+5701 19d20+5499 12d10+5665
8508 3
17d6 9d12+8483 19d8+7665
9879 2
12d8-3505 12d6+9838
5062 9
19d4+5038 17d12-4869 14d6+5043 14d8+5011 13d6+5006 12d20 17d20+4807 6d20+4963 19d20+5039
4776 2
14d12+4738 18d20+4432
6329 2
10d8-179 17d8+6281
5892 7
20d8 20d10+5759 11d20+5789 9d8+7877 20d20+5517 9d12+5827 19d12+5734
3931 5
10d12 1d12 8d4+3900 8d12+3863 7d12+3884
1582 10
18d10+1510 17d20+1371 10d12+1534 12d20+1484 6d10+1531 10d6+1564 11d12+1486 2d8+1573 17d20+1258 2d4
5732 10
20d12+5643 13d10+5697 12d20+5674 17d12+5656 16d20+5520 1d12 10d20+5564 4d20+5685 20d8+5712 18d20+5397
3890 2
20d4+3830 19d20+3731
4141 9
18d12+4080 12d10 2d20+4117 16d12+4013 12d20+4086 19d10+3958 7d12+4098 5d6+4130 15d12+4006
8987 10
4d10 9d20+8873 18d10 19d20+8731 12d8+8973 16d6 17d4+2172 2d12+8968 14d10+8956 17d6+8963
1513 4
6d12+1499 14d4 18d6+1490 11d8+1484
2987 3
16d20+2847 20d8+2900 13d20+2817
5103 9
18d6-5155 16d20+5026 7d20+5018 10d12+5061 18d20+4753 16d10+5040 4d10+5063 17d10+4971 12d12+5071
8738 7
20d20+8689 17d6-5496 20d12 6d20+8643 16d12+8587 17d6+8640 2d10
8410 2
17d12+1101 15d12
5085 3
19d12+4875 9d20+1144 11d20+5066
410 10
7d20+9681 14d10+4749 17d20+159 14d6+332 19d20+244 18d10+303 11d20+253 4d4-519 2d10+406 20d20+63
5959 4
11d8+5918 20d20+5574 19d10+5882 15d8+5916
7918 10
16d12+7892 19d20+7603 14d20+7784 3d6 19d6+7842 4d10+7905 13d8+7900 4d20+9945 11d20+7761 2d20+8935
8609 5
12d20+8371 4d12+8563 11d4+2194 8d10-3449 16d12+8583
2954 6
18d10+2913 19d20+2581 15d12+2907 16d10+2929 1d4 13d20+2906
267 7
14d20 20d20 19d20 16d20 7d12+230 8d4 18d20
5952 5
17d20+5866 9d20+5840 16d6+5923 2d4+5295 10d20+5911
4894 10
19d20+4587 12d12+4834 8d20+4860 10d10+4799 20d12+67 16d6+4807 18d20+4673 19d20-1047 11d10+4875 7d8+9446
3127 5
19d10+3104 10d4 8d20+2987 17d20-5791 14d8-6401
5725 3
3d6 11d20+5576 13d20+5534
7211 9
10d4+7193 13d6+7143 20d8+7135 4d10+7174 18d12+7029 17d12+7137 18d10+7056 16d20+7084 15d10+7173
2986 8
20d8+9374 15d20+2807 13d20+2883 7d12+3286 10d8 5d6+2968 20d8+2915 10d12+2896
548 7
18d20+331 6d4-9479 8d8 11d8-4369 11d6+6620 11d8+2739 20d20+390
6135 5
19d12+6116 16d20+6118 13d12+5995 16d20+5978 1d8
1907 4
11d20+1886 9d20+1746 9d8+1849 13d8+1814
523 3
19d20+302 13d10+455 18d20+240
428 10
11d12+341 13d20+221 17d20+385 9d12+418 8d10+360 14d20+246 1d4 11d20+324 4d8+413 19d20+104
531 3
11d20+451 6d12 9d6+502
4040 9
7d12 3d6 19d20+4019 8d20+3962 5d10 18d10 17d4 9d8+3987 5d6+4021
7811 10
17d12+7693 12d10+5591 11d20+7652 12d4+7770 19d10+7732 13d8+5622 7d4-4634 4d6+7794 17d12-6487 19d8+7755
2546 8
9d20+2415 3d20+2521 7d20+2473 7d20+2448 7d20+2476 20d10 13d10 7d20+2442
5701 2
13d8 18d20+5663
4059 9
17d6-2378 9d12+4031 8d6+4021 10d20+3885 14d10+3927 12d20-4140 18d10+4484 16d8-7469 13d6-8036
3061 7
9d20+2949 19d20+2945 14d12+3034 11d10 8d20+2999 11d12+2966 14d12+2930
8986 7
11d6 6d20+5966 19d20+8867 11d10+8938 20d12+8773 10d8 9d12-1821
4956 2
2d10 4d8+6242
7663 9
20d20+7321 1d20 8d10 10d6+7634 19d20+7361 10d6+7604 12d20+7479 7d8+7615 5d12
6123 5
16d20+5998 19d10-8504 13d12-7106 9d20 13d6+6074
6610 10
20d20+6307 6d20+6512 6d6-4510 8d10+6563 15d20+6367 3d4 13d8+6557 14d4+6584 18d12+6414 7d8+6594
7391 3
16d20 13d8 20d6+7294
1601 8
14d12+1535 13d12+1548 19d20+1440 10d10+1911 11d20+1533 10d20+1438 17d20+1383 13d8+1564
4721 2
11d20+4618 14d4+4696
9491 4
9d4+9456 1d12-6990 18d12+9305 5d20+9476
8900 8
19d12+8777 16d12+8767 9d20+8848 5d20-4490 19d12+8674 4d8+8892 2d10+8893 11d20+8805
2898 2
3d10-1676 12d10+2843
1929 6
12d20+1860 18d12+1907 11d6 7d8 13d10+1841 12d4-1185
863 4
12d20+776 11d4 12d20+771 10d20
3433 2
7d20-1903 10d12+3419
3572 7
9d20+3508 19d20+3457 19d8+3436 16d6+3544 12d6+3549 11d12+3551 11d8
1946 7
2d12+1926 1d12 14d8+1923 7d12 20d20+1700 19d20+1674 1d20
7980 8
8d10+7916 17d12+7930 14d6+7930 19d6+8866 19d4+7939 18d20+7740 14d20+7780 19d20+7882
5413 7
2d20-8349 7d12 14d8+5369 20d4+3975 8d6+5393 8d6+5366 8d4+1184
3473 9
3d20 18d20+3288 8d4 20d4+3418 18d6+3380 18d20+3153 13d8 17d20+3155 18d20+3365
641 7
17d10+568 18d20 14d6+587 14d20+7919 9d12+595 18d12+559 6d10+588
4667 7
14d20-1684 18d10+4613 19d12 11d20+4480 13d8 18d12+4583 11d12+4545
5760 5
9d20+5592 20d12+5580 16d20+5564 6d8+5744 19d20+5536
4272 3
17d4-3824 14d10+4230 8d20+4229
446 7
2d8+434 8d20+314 8d12 19d12+373 16d20+1406 16d20+361 18d12
7069 9
10d6 11d20+6889 3d20-84 18d8+6926 8d10+7015 17d6+6997 19d20+6949 6d10+7044 4d12
6217 5
17d10+6092 6d6 11d4+6191 10d10+6147 5d20+6474
1900 7
6d8 12d12+1777 10d6 17d6 14d12+1736 9d12+1852 13d8-9821
7132 6
4d8+7128 8d20+7007 14d12+7065 17d12+6958 19d12+6936 5d8+7123
4244 5
1d4+2744 7d20+4230 6d6+4213 9d20+4110 20d20+4133
8510 10
10d20+8327 15d20+8444 13d10+8454 12d12 11d20+8421 6d12 18d12+8310 17d6+8457 17d20+8199 3d20+8478
9191 4
13d20+9005 6d20+9156 18d20+9052 15d12+9048
9399 9
6d12+9338 12d20+9370 19d12+9345 3d12 3d20 9d4-1157 15d20+9135 20d8+9240 15d12+9339
6778 9
13d8+6751 7d8-4929 4d8 16d8+6671 17d10+6721 2d4 2d20+6751 17d20+6646 9d6
1413 7
7d6 2d8 18d6+1339 16d6+6428 12d12+1300 4d20+1395 16d10-8384
3797 9
19d8+3664 19d20+3459 8d4+3789 14d10+3669 10d10+3781 6d10 7d20+1302 15d20+3504 5d20+3742
6783 2
8d8+6766 15d4
2018 2
20d8+1917 12d6+4770
8392 10
10d20+8210 20d20+8104 2d8+524 16d8 16d12 14d10 19d20+8024 14d10 19d12+8242 13d10+8281
4547 2
19d20+4317 9d20+4530
9016 8
18d12+8891 11d4+8980 4d20+8978 17d20+8860 14d4+8968 4d12+5106 19d20+8721 14d12+8853
4627 5
17d20+4430 4d8 11d20+4612 2d12 4d4
8282 9
14d10+8183 15d8+1202 12d8 12d20+8129 18d8+8176 4d6+8262 13d12+8128 10d20+8148 20d20+8131
5430 4
8d12+5415 14d6 20d20+5207 16d10+5315
3537 8
18d4-2169 9d10+3525 10d12+3470 17d20+3510 14d10+3405 14d20+3514 19d20+3399 11d12+3474
4150 2
14d20+4061 4d4-7611
5332 2
16d8+5225 10d8+5304
3563 6
12d8-3562 14d20+8950 9d12 15d8+3495 6d20+3557 14d10+3430
2121 10
13d20+2021 15d12-1306 20d8+2060 19d12+2014 13d20+1909 6d4 12d8+2076 12d12+2075 3d20+2093 20d12+1894
1072 6
4d4 19d8+998 12d10+953 17d10-8441 14d20+824 12d10+1054
6508 2
18d20+6296 2d20-4729
1404 2
11d8 18d12-5824
8844 2
15d4-9816 6d6-9792
7539 9
19d6+7475 3d6-2372 3d8-7016 7d6+7505 19d12+7387 2d6-7919 15d20+7376 13d20+7342 20d4+7516
8552 2
15d20+8275 9d6+7511
6756 3
7d8+6741 14d8+4097 12d12+6625
3122 10
18d20+2900 19d10+3085 12d8+3107 20d20+2990 15d6+3034 18d20+2977 9d12+3069 17d12+2983 13d10+3080 12d8+3079
436 5
13d4-3719 7d20+318 5d6+423 14d8-2541 15d12+388
8536 7
12d4+1027 14d20+8369 8d20+8463 4d10 15d12+8375 11d12+8515 16d20+8314
917 6
8d12+856 17d4 5d20 2d10+913 17d20+805 2d20+878
8760 6
15d8+8710 18d12+1255 11d6-1816 4d10+8755 10d12+8653 20d8+8686
3890 3
5d20-3980 3d12+3878 8d4
3017 5
13d12+2896 10d12+2991 11d20+2890 1d6 13d6
3267 6
8d20+7732 20d6+3238 17d10+3204 7d8+5073 13d10+3237 19d6+3196
1354 2
13d12+1319 18d12+1279
541 5
4d12+505 15d8+498 16d10-5714 6d6 20d20+380
6013 7
19d8 14d8+5988 3d20-1664 18d10 7d4 20d12+5815 17d12+5957
1741 7
13d10-1842 8d12+1695 10d20 17d10+9475 13d4+1707 6d4+1728 18d10+1595
1490 5
12d8+1456 18d4+1419 12d8 17d8+1392 13d6+1428
2172 5
6d6+5125 10d4+2148 1d6-3128 13d8+2097 15d8+2154
653 4
17d20+494 6d12 19d20+485 18d20+2160
5859 10
16d12 7d20+5721 17d6+5829 12d6 11d6+5824 18d12+5818 15d20+5651 13d12+5835 13d20+5663 10d6
5012 7
16d12+4891 16d12+4843 11d20+4882 16d12 12d10-9142 2d6-9402 11d20+4918
3353 6
13d20+3096 4d4 17d20+5460 9d4+3343 18d8+3221 13d4-280
2467 4
17d6+2426 11d20+2330 16d20+2160 14d10+2330
3531 4
17d10+3472 14d20+3378 14d20+3375 19d12+3309
1237 3
13d10+1215 8d20+1225 12d12+1178
3760 7
18d12+3710 15d8 4d20+3740 19d20+3519 3d8+3739 11d8 15d4+3721
2055 5
13d20+1836 10d4+2023 19d10+2026 13d10+1959 19d12+1980
4330 10
19d12+4198 13d6+4281 17d8+4267 7d10 16d6 3d10+5707 9d4+4308 13d6+4253 16d20-9058 13d8+4291
6028 4
19d12+5991 16d4 14d6 2d20+6015
3904 3
18d12+3882 18d12+3859 8d8+3870
1614 5
5d20+1588 20d12+1401 20d8+1473 19d12+1581 18d20+1381
2723 8
20d8+2660 17d20+2632 11d12+2656 11d20+2549 18d6+2698 19d20+2422 13d4+2703 16d10
7617 7
13d4+7567 14d20+8699 13d8+7547 8d8+7582 9d12+2782 17d6+7587 5d4
5496 2
17d6+4127 6d10+5469
2114 4
19d12+1972 19d20+1762 2d10 12d4
5841 3
16d20+5731 7d6-7816 11d20+5798
9765 4
11d6+9717 19d10+9626 5d8+9741 10d20+2013
8274 8
9d10+8200 5d6+8249 16d6-9993 13d20+8057 8d4-8339 8d6 11d8+8221 20d6+8212
570 6
15d20+290 17d8 15d20+284 2d8+562 16d4-9693 17d4
8406 2
17d10 19d12+8241
7920 7
20d10+7881 20d12+7854 12d10+7837 14d12+7882 19d10+7849 12d12+7824 18d20+7846
5615 6
10d8+5561 14d12+827 14d20+5543 16d12-2542 11d10+5506 12d6+5574
3108 5
16d12+3044 17d20+3076 7d10+3075 13d12+2974 1d6
4645 2
9d20+4633 17d10+5136
4298 5
19d20+4202 12d20+4098 13d12+4264 16d4 14d12+4180
1197 4
4d10 19d6+1147 16d12+1054 14d10+1116
5087 3
3d6 2d8+1094 8d12+5024
2043 4
20d8+2008 18d6+2012 7d12+2022 15d8+1927
2542 8
20d4+2498 16d6+8358 15d8+2461 12d20+2482 16d20+2488 17d20+2232 12d20 9d20+2518
2520 9
5d20+2479 16d10+2363 14d12 17d20+2210 15d10+2441 2d12 13d6+2469 7d8+2495 7d20+2498
2623 6
20d20+2269 18d6 17d6+2594 9d20+2444 20d20+2511 9d8
5962 8
16d6+5936 13d12+5892 12d4+5949 18d6+5936 17d8 13d20+5890 20d8+6523 20d12+5873
2836 8
20d10+2742 13d12+2765 8d10-6106 7d6+2795 3d12-2857 17d12+2645 16d10+2772 8d6+2825
871 5
5d20 11d8+6703 9d12+851 7d12-7350 14d12+723
7763 5
16d10+7624 11d12+7732 3d20+7720 3d10+2673 8d10+7730
5603 10
13d10 14d20+5360 4d12 14d4+5555 20d20+5236 7d12 16d10+5551 16d10+5479 13d4+5584 20d12
2791 4
12d8+2768 12d12+2752 4d8+2772 15d20+2525
6952 10
13d10+6851 13d20+6874 11d20-433 12d20+6910 5d12+6945 15d20+6780 13d12 15d12+6896 17d12-1491 14d8+6847
4073 3
15d12+3971 19d20+3951 20d10+4014
5720 2
15d8+5622 4d10+5686
7032 6
18d12+6984 4d12-847 9d10+6987 15d20+6761 16d12+7016 16d12+6986
3795 3
11d10+3709 6d10-1794 13d12-7305
4072 6
8d12+4064 2d4-2457 16d20+3863 7d20+4045 19d20+3871 13d12+4038
4672 6
13d20+4635 11d6 11d6-4364 12d8+4630 20d20+4301 19d4+4612
254 4
19d20+156 18d20 14d20 16d20
4640 6
5d8-4984 18d8+4550 12d4 5d20+4547 2d4+4632 9d4+4626
7159 5
15d10+7024 12d20 17d20+7077 5d4 8d20+7040
4810 5
12d4+4793 19d20+4699 18d20+4645 20d12-385 19d10-1133
2296 10
17d8+2233 8d8+2256 15d20+2039 9d8+2261 19d10+2113 12d20+2259 18d20+2135 12d12+2188 3d8 2d20
7680 5
8d10+7613 17d6+7607 14d12+7557 20d8 17d6+7609
7480 10
13d12+7397 19d12+7420 10d8+7411 19d12 12d10+7416 20d20+7118 8d20+7471 20d20+7401 14d20+7432 6d4-8293
7696 5
12d20+7594 13d10+7572 15d12+7538 2d10+7693 10d8+7676
1214 9
17d12+1106 18d10+1162 4d6 19d20+1100 11d20+1105 2d10 11d12+1098 19d20-6765 19d20
3729 3
13d20+3607 12d6+8563 16d8+3642
8969 2
17d6+8907 15d10+8843
8672 10
17d8-8996 15d20 6d20+8613 13d6+8652 20d10+8643 20d20+8558 19d6+8587 9d12+8634 7d20+8573 2d12+8658
7779 5
9d6 13d20+7696 17d10+7645 19d20+7608 17d20+7616
8801 10
18d4+5665 20d6 15d10+6085 16d12+8649 17d12+8770 18d8+8758 8d20+8753 8d20+8667 2d20+8769 8d6
8124 10
5d12-1685 15d8+8047 3d10+8110 2d6-6825 10d8+8053 15d20+8035 14d12+7957 18d10+8093 9d10+8105 14d8+8107
7488 4
15d8+7403 1d20 13d12-1456 17d4-3450
786 6
6d4+780 8d12+743 17d12+664 16d10+678 20d10+721 10d10-6791
5924 10
18d10+5786 16d20-2443 18d12+5825 8d6+5914 5d6+5917 10d12+5865 11d10+5845 6d6+5901 10d6+8833 3d6+2742
1626 7
9d20+1474 13d20+1459 14d12+1495 14d10+1575 11d20+1495 9d20+1470 17d12+1475
8079 7
14d20+7989 20d10 14d12+8012 15d12+6840 19d20+7975 17d10+7964 16d20+7781
4074 2
13d12+4033 14d12-4621
7657 3
10d8+7616 1d4 3d20
7803 10
17d10+7740 18d12+7680 15d12+7763 4d4 11d6+7770 12d20+7666 17d4+4124 5d20 11d12+7721 16d8
1818 7
8d4+1807 14d10+1682 11d6+1784 19d20+1587 20d20+1655 6d6+1812 13d20+1802
1395 8
10d20 17d12 14d20 14d6 5d4+1382 16d12+1293 20d4+1333 17d10+1355
5781 10
18d10+5671 11d12+5657 17d4-3210 4d12-5552 6d4-7721 2d20+5774 13d20+5651 16d20+5503 12d20+5763 14d20+5550
3616 6
13d12+3596 4d20-8168 20d4 8d10 19d20+3377 2d10
883 8
12d8+854 5d12+875 17d10+773 10d20+731 13d6+859 16d12+785 5d20+878 17d6+806
1969 2
20d6 9d12+1918
8242 5
2d20 6d12+8175 15d8+8126 16d20+8165 9d20+8212
176 7
13d20 15d12 17d20 18d12 16d12 18d10 15d12
3796 6
17d12+3746 20d12+3754 6d6+7535 15d20+3585 11d12+6272 4d12+3791
6649 7
18d20+6600 19d12+6450 17d4+6618 20d10+6502 18d10-3766 2d8 15d20+6498
8181 6
16d10+8161 17d12+8004 10d6+5342 18d20+7863 6d10+8129 11d4-8395
5776 3
3d20 20d20+8158 8d20-6485
7844 4
14d10+7812 16d10-9291 16d10+7722 7d20+7832
4436 9
8d8+7566 14d20+4260 9d12+4378 20d12+4237 2d6-6642 20d20+4145 17d10 15d20+4314 14d8+4333
6346 8
13d8+4647 10d20+6296 9d20+6229 12d20+6256 11d12+6279 15d8+6255 4d6 7d4+6327
3942 2
17d20+3656 20d12+1207
1680 6
20d10 12d8-5267 16d8+1560 7d12+1670 11d12 8d10+1662
5917 2
9d4+5905 5d10-8803
1924 5
11d8+1842 19d20+1715 13d8+1836 17d4+3607 4d8+1907
910 4
17d10+789 2d8+907 7d6+887 12d8+846
7019 7
20d8 18d6+6978 19d12+6901 15d8+6965 16d6+6950 20d20+6629 20d6+6970
1396 7
13d10+1315 12d20+5260 1d4 1d20 5d4 14d8+1322 20d4+6406
9179 5
19d20+8826 11d12 13d10-2563 19d8+9068 9d4-1470
9453 9
5d20 16d10+9431 8d8 13d20+9336 20d6+9418 18d20 3d4+642 10d6+9409 12d8
4512 2
11d12+4408 1d20-1464
3393 6
16d20+3074 16d8+3287 17d8+3322 13d6+4325 18d12+3326 16d12+3221
2556 2
9d8+7810 17d20+2246
9975 8
19d10+9893 16d12 17d20+9644 5d8 14d8+9903 18d10+9863 15d10+9936 17d6+9885
9916 7
20d4+9885 7d20+9804 12d10+9819 10d10+9422 18d20+9888 17d10+6341 19d12+9713
482 4
11d20+415 14d10-52 17d6-6429 13d20+456
9640 2
6d20+6201 13d8+9537
8819 10
15d8+8710 13d20+8559 17d4+8778 6d10+8790 18d6-69 17d8+8800 1d12 12d20+8635 8d6+8704 10d12+8763
9082 9
9d10+9053 4d6+9076 20d8+8971 13d12+6640 17d12 8d8 13d20+9054 13d8+4728 17d8+8998
9010 3
6d20 16d10+8872 9d4
9546 7
19d4+9473 14d12+9460 18d12 8d20+9531 13d20+9352 20d6+9445 14d8+9519
5315 5
18d20+5029 15d12 10d20-2934 3d10+1765 13d20+5227
6196 10
19d12+6096 13d20+6012 17d10+2857 20d20+5857 14d10+6102 15d20+5964 7d6+6155 20d6+6792 19d8+6082 5d20
8935 6
17d12+8857 11d20+8881 19d8+8822 20d6+8867 11d4+8898 3d12
6668 7
3d8+6646 18d4 19d10+6552 19d12+6614 18d4+6615 10d20+6515 2d12+6652
4035 5
1d8+1896 15d12+4002 16d4+3989 11d6+2970 13d10+3934
1223 8
6d10+1182 12d4 17d20+1200 6d12 5d10+5422 8d20+1193 9d6+1193 11d6+1205
5396 7
12d8+5384 20d8 10d10+5347 13d8+5358 19d10+5247 11d8 9d10+5369
8460 3
11d4+3585 20d20+8317 18d8
9430 7
2d8 19d12 18d4+9361 6d6 11d12+9355 4d6 17d4-542
3206 5
19d12+3088 14d20+2940 16d20+2891 10d10+3111 14d10+3158
9151 2
1d4+2750 11d8+9125
8179 7
19d6 4d4+2661 11d8+8156 10d20 14d6+8095 18d20+7986 12d20+8019
3180 6
7d12+3168 20d10+3047 13d20+2940 13d20 18d20+3137 15d12+3021
9128 5
18d6+9059 12d10+9077 18d20+9108 18d10+8999 14d10-4575
6099 2
10d20-4220 13d10+614
5564 4
18d10+5481 1d4+5561 14d8 15d10+5447
7299 4
16d4 13d20+7240 8d20+7191 19d10+7278
2675 6
17d10+2644 13d12+2634 15d12+2605 4d20+2664 17d10+2643 4d8+2649
3166 10
14d10 18d12+3117 11d6+3120 18d12+3133 18d20 17d20+3087 10d4+3145 14d20+3127 4d12 15d12+3121
6036 3
13d10+5916 11d8+5953 15d8+5955
3631 2
8d10+3609 16d12+3566
2913 6
18d10+2739 18d6+2824 6d10+5485 20d8+2810 19d20+2642 13d8+2898
5387 6
7d4 11d20+5329 18d8+5243 11d4 17d10+5279 1d8
1496 2
19d8+1428 19d12+1434
9804 10
18d20+9755 8d4 3d12+9770 10d20+9791 3d6-1741 3d12 4d12+9757 15d6+8968 4d10 6d20
5686 10
7d4+1462 5d8 10d12+5599 13d6+5652 20d20+5547 18d12 16d10+5551 5d12+5666 6d10+5651 13d4+5665
1631 4
19d20+1471 19d20+1488 15d10+1562 10d12+1607
5858 3
13d10-609 16d20-1695 10d20+5684
3838 2
20d10+3809 15d10
335 7
18d20 18d20 18d20 14d20+113 19d20 15d8+264 17d20
8290 3
6d8+8250 20d20+7913 17d8+8176
9452 7
8d12 17d12+9403 16d6+9397 10d12+9412 2d8-4178 2d4+9447 20d4+9432
7904 5
15d12 15d20+7671 20d12+7822 4d12 3d20+7865
940 3
2d4+7947 12d4 11d4+3713
312 8
17d20 18d20 16d20 19d20 17d20 18d20 16d20 18d20
6063 4
17d20+5988 12d12+6017 9d20+6038 17d8+6046
3169 10
11d4 13d12+3061 13d12+3156 11d10+8427 10d8+3103 10d6 13d20+2986 6d20+3063 13d20+3081 13d20+2942
5327 7
8d8 14d8+5248 12d10+3935 8d20-9045 17d20+5180 17d20+4987 16d20
9021 10
18d10+8859 4d10+8994 19d20+8776 8d20-7634 19d12+8965 12d8+8939 10d6+9003 8d6+9012 12d10-7057 20d20+8824
7228 10
17d20+7135 2d12-8154 18d12+7180 20d12+7005 17d12+7054 17d20-3217 19d20+6854 7d20+7156 13d12+7119 13d10+7121
3462 4
11d8+3388 10d20+3296 19d12+3392 8d8+3446
3130 4
12d8+3052 8d6+3100 19d12+2926 18d6+3085
8352 5
17d12+8330 6d6 17d10+8277 10d10+1105 9d8+8288
9563 6
19d20+7100 4d8+839 20d20+9357 6d20 20d20+9448 18d10+9466
4433 7
13d20+4404 16d8+4415 12d20+4240 17d12+4274 13d6-2352 14d12+4378 13d6+4389
584 4
1d20+3194 19d20+359 12d6+537 7d12+566
3270 10
12d20+3167 20d10+3190 11d20+3116 17d10+8679 12d8+3189 20d10+3147 9d10+3181 5d8+3239 19d8+3251 9d12-9036
6347 6
15d20+6262 16d12+6261 12d6+5724 15d20+6048 11d8+6315 6d12+6326
2997 10
17d12+2975 11d12+2953 20d10+2962 8d20-7661 8d10+2950 4d10+2970 15d6 18d10+2895 5d10+2957 7d10+2945
8379 2
11d20+8174 4d20
5595 2
7d12+2215 20d20+5383
1191 7
16d10+5109 2d10 1d6 13d20+965 16d12+1170 20d12 11d8+1121
9065 6
17d20+8912 3d4+9061 15d20+8835 8d4+9238 19d12-7647 18d12+8897
6755 4
17d20+6498 17d6+6728 17d20+6691 20d6+6702
1429 2
9d20+1275 6d10+1381
5852 10
18d20+5748 11d10+5771 9d12+5833 16d20+5555 15d12+5710 8d20+5843 14d20+5628 17d20+5799 12d12+847 18d12+5791
5827 4
16d20+5592 16d20+5624 10d4 11d4+5805
1630 6
13d10+1605 16d20+1465 15d20+1442 9d12+1547 20d10+1537 20d20+1329
722 2
17d4+2805 16d20+629
1140 6
13d6+1065 16d20+1112 11d20+7170 15d8+1039 10d20+1097 17d10+993
8802 3
4d4 16d6+8785 5d8
7097 8
19d10+6916 17d12+6923 19d4+7060 6d20+7058 17d20+6810 19d8+6982 9d20+6920 12d8
2641 7
18d6+2559 15d10 19d10-5256 15d20+2356 3d20+2589 20d20+2282 19d10+2489
4334 6
7d10+4305 18d8+4278 14d20+4293 3d20+4281 20d10+4196 19d4+4315
80 5
9d10 18d6 5d20 11d20 17d20
747 7
12d4+717 10d10+732 10d10 9d12-3504 19d20+503 18d20+551 8d10+678
2025 6
16d20+1975 14d10+1932 20d4 20d6+1909 14d6+1945 8d4+2010
7647 10
14d10+7584 8d10+7603 11d12+7583 17d20+7314 16d4+7603 19d12 4d20 8d20+4052 18d12+7478 19d12+7553
2800 9
15d20+8465 15d4 5d20-823 11d4 5d20+2769 17d20+2686 4d20 15d8+2685 20d10+2674
4378 4
4d6 3d4 8d12+4337 18d20+4289
1970 5
14d6+1929 18d10+1843 12d6+1957 20d8+1852 10d20+1924
7040 3
18d8-451 7d20+6910 14d20+6854
9270 7
18d6+9186 19d10+9214 14d20+9234 9d20+9168 15d8+2460 2d8 12d20+9069
2037 4
1d4 11d10+1932 1d12 18d12+1973
166 2
12d20 14d20
676 3
17d8+649 7d6 19d8+542
4919 7
4d20+4870 18d6 15d12+4747 13d10+4804 13d20+4768 11d12+4902 15d10+4843
5851 7
2d8-8487 15d12+5779 17d6+5781 6d4+5827 10d8+5827 2d8+5846 12d20+5704
9080 6
3d12 13d20+8826 13d10+9026 16d4+9018 11d20+9003 20d8+9052
7341 6
20d8+7299 14d12+7265 13d20+7093 15d10-981 4d10 15d6+7264
1695 10
17d20 5d20 19d10+1552 20d8+1574 4d10 10d12 13d8+1603 17d4+1653 18d6 14d10+1627
5038 2
17d8+4921 10d8+4962
9949 3
6d20+828 13d8+9853 7d8+9895
3739 8
16d20+3674 6d8 20d4+3716 14d10+3724 5d20 7d6+3731 10d12+3717 18d20+3713
6498 6
10d4-507 17d20+6224 14d20+6408 4d10+2539 18d4+6435 9d12+6185
5150 3
2d6+5146 18d8+5006 14d20+5037
4373 3
17d20+4059 9d12+4333 13d8
9732 8
17d12+9599 16d10+9637 19d20+9465 7d20+9686 1d6+2918 5d6 15d12+9629 20d12+9505
5171 9
20d12+5012 13d20+4974 11d12+5049 8d10+2188 14d4+5138 14d10+5068 12d10 16d10+5110 4d20+5159
7579 4
12d10+3178 17d4+7545 15d8+7531 8d4
9747 9
14d6+9676 14d20+9522 14d20+9594 14d8-2580 15d6+9657 8d12 17d10+9602 12d8+9679 15d20+9552
4075 5
20d10+4011 3d6-1517 7d10+4010 12d20+3880 11d20+4018
5829 4
3d6+5825 14d12+5685 10d12+5791 15d20+5791
1134 2
18d20+5807 18d20+1006
4538 5
9d6+4513 19d20+4337 20d12+4348 12d12+4442 14d12+4409
2301 8
16d20-161 16d20 6d4+2859 3d20+7707 1d8 16d20+2078 13d12+2199 16d20+2240
3584 6
20d20+3509 11d20 16d6+3510 16d20+3356 7d10+3560 12d10+3497
848 5
20d20+701 9d20+54 18d10+747 5d12+820 7d10+813
8093 9
18d6+8020 18d12+7949 11d20+7929 10d4-9802 1d6 8d20-5532 17d12+7956 4d8-1394 6d6
6427 7
7d6+6389 6d20-1166 20d8+6318 14d8 20d12 11d20+6224 15d20+6176
8094 3
14d20+7917 10d12 6d20+7990
5916 4
19d6 1d6+5911 8d20+5783 8d20+5897
8253 4
8d20+8157 3d6 17d4+8198 16d10+8159
4632 3
15d12+4587 13d20 17d20+4480
8942 10
11d4 11d10+8923 17d20+8650 20d6+9936 5d4 10d10-2502 19d8+8907 6d8 16d6+8880 9d8+8922
2169 4
5d20-9941 18d20+2116 2d12+5953 18d4-7196
5784 6
20d6 11d10+5769 13d20+5620 20d8+5739 19d12+5757 6d12+5716
4769 5
6d10+7563 16d12+4695 20d6+4725 14d10+4743 8d12+4676
9680 2
17d4+9627 16d6+9625
2608 8
8d8 20d20+2352 17d20+2412 19d8+2563 16d20+2395 9d12+2534 20d8+2457 17d8-3601
8902 4
18d20+8684 16d12+8759 14d12+8839 16d10+8815
1682 4
12d20 4d10+1652 14d12+1583 15d12+1627
1740 2
6d20+1638 15d12+1670
9281 9
20d8+9214 15d20+9038 16d6+9220 16d6 13d8+9204 18d10+9106 19d12+9250 7d20+9247 14d8+9170
1258 3
18d4+1239 10d12-9763 13d20+1073
3933 10
18d12+3745 2d20+3898 11d4+3496 19d12+3785 12d4+2832 17d20+3838 9d10+3854 13d10+3840 9d10+3847 18d20+3740
6856 10
18d10+6802 17d4+6805 11d10+6789 9d10+6837 9d12+6830 6d10+6835 18d12+6683 16d6+6788 16d12+6716 14d12
9935 4
7d20+9795 14d20+9891 19d10+9893 15d12
9398 6
11d20+6211 2d20+9362 20d4+9318 20d10+9248 15d6+9321 11d20-8620
1981 3
1d10 16d20+1936 5d6-1702
559 6
3d6-8604 4d10-6505 4d20+500 19d20+212 14d12+454 18d4+523
1588 10
6d4 18d20+1523 11d20+1572 19d12+1438 7d12+1570 8d20+1493 4d6 16d10+1445 5d8+1488 6d8
4403 3
16d20+4154 8d6 10d6
8925 8
18d20+8810 11d10+8890 18d12+8758 19d8+8882 1d8+8917 17d20+8606 17d10-483 18d6+8871
4246 7
15d20+4077 19d20+4037 15d20+4141 11d8+4223 15d8+4177 1d4-2271 16d8
3999 10
7d20+3973 8d6+3981 17d6+3980 10d20+3919 17d10 18d8+3903 10d20+3955 16d20+3769 17d10+3957 14d20+3931
7593 2
8d20+7535 16d6+7514
4880 3
2d6 13d4 14d6+4841
2094 4
11d6 5d6+9754 5d20+2022 15d10+6576
1896 3
16d10+9789 17d8 15d10+1748
4 8
4d20 3d10 4d8 2d10 4d4 4d20 3d20 4d8
2345 6
11d20+2289 20d10+2225 10d20+2157 17d4+2282 6d6 19d4+2279
6902 9
10d8+6857 2d10 2d8-7632 3d12+6875 7d8 8d12+6821 18d20+6718 15d20+6828 16d20+6816
100 2
13d20 10d10
2394 8
14d10+2266 11d12+2265 16d12+939 19d20+2366 14d6+1701 19d20+2342 8d8+2370 16d6
4177 7
15d8+4142 15d20+1851 5d4 16d20+4151 16d6 17d8+4085 16d4
6116 10
10d10+6039 8d12+6071 18d8+6005 17d8+6053 19d6 4d12+6078 19d20+5926 13d8+6016 10d4+6105 5d12+6109
6465 4
19d20+6379 19d10+6331 15d20+6380 5d8-8388
4887 9
4d20+4847 9d4+4861 7d8 20d12+4814 6d6+4871 19d8+4735 8d20+4764 9d8+4821 16d20+4618
6226 5
14d10+6163 13d20+6183 16d8 17d10 20d4+6156
9357 2
20d20+9014 18d20+9316
8926 3
15d10+8810 14d20 2d8
3786 3
18d10+3627 14d20+3693 14d20+3761
1205 9
8d8+1174 14d4+1176 17d12 15d20+964 8d10+1133 19d20+1037 3d8 16d20+1088 20d10+1095
6662 8
14d12+6546 18d6 18d20+6431 5d10+6618 17d10+6625 12d8+6606 20d6+6616 18d10+6506
5561 8
18d10+5490 2d20 14d10+5474 16d12+5435 8d20+5461 11d20+5406 18d4-7831 14d4
3955 9
20d4+3899 7d10+3939 9d20+3872 18d4-2182 10d12+3931 7d12-9229 6d8+1700 16d8+3872 13d8+3881
9772 8
15d20+9507 13d10+9740 20d20+9684 3d10+9758 3d4-67 8d4+9762 14d12 12d12+9668
618 3
8d10+543 15d12+498 20d20+583
1193 5
3d8+1187 1d12+1187 2d10+1678 18d8+1146 15d20+984
2394 7
2d20+2366 12d10+2377 15d10+2280 5d8+2384 15d12 11d12+2271 15d8+2358
5515 8
16d20+5476 7d20+5494 6d6+5483 13d6 18d12+5307 11d20+5418 19d8+5409 18d10-3745
321 9
17d20 18d20 18d20 19d20 19d20 18d20 18d20 1d8+2371 17d20
8725 10
19d10+7320 9d6 10d20+8576 13d20+8607 13d20+8619 18d12+8561 2d10 13d20+8501 5d12+8669 19d8+8661
8705 6
14d12+3853 18d10+8543 4d6+5277 8d8 5d12+8651 19d10+8650
5503 3
18d20+5467 17d12+5368 10d20+5459
9302 9
19d20+9081 20d20+9171 16d8+9258 9d6+9248 7d20+9190 8d6 17d6+9258 13d8+9271 1d20
2586 5
15d20+2450 14d20+2312 8d10+2525 11d4+2570 20d4-2456
5317 4
10d4 18d4+5263 14d8-8611 12d20+5231
277 5
17d20 17d20 15d20 16d20 12d4+265
7539 3
4d12+7510 19d10+6020 18d20+7343
3082 3
16d20+2917 17d12+2950 14d10+3001
1793 6
12d20+1736 9d20+2546 10d6 18d20+1702 16d12+1712 11d20+1602
1496 7
16d10+1451 17d10+1406 15d20+1251 2d20-5162 16d20+1408 13d6+1469 13d20+1440
3951 8
13d10 17d10+3825 16d20+3812 16d8+3826 19d12+3778 15d20+3841 15d20+3932 17d20+3641
5339 10
14d20+5323 18d20+5069 11d10+6260 11d20+5319 14d10+5222 16d8 7d8 19d6+5252 16d20+5249 15d8+5246
4195 3
17d8 11d20+4143 8d8+4145
6244 8
15d6-9694 13d8+6222 14d20+6150 14d4 17d10+6135 14d6+6160 18d6+6165 5d10+6214
8007 8
18d20+7864 13d10+7880 11d6+7981 13d4+8541 19d8 17d12+7843 15d8+7069 16d10
9575 9
19d6+9504 2d12-8362 8d4+9549 1d20+9533 20d12+9540 14d10+9552 19d4 13d20+9405 9d6-5249
942 10
5d20+885 11d20+884 18d10+765 14d6+887 14d12+905 1d4+939 18d20+587 19d8+815 11d4 16d20-3726
5771 3
2d6 3d8+5753 13d12+5667
9518 3
17d12+9457 14d12+9415 10d10+3275
4469 9
19d6+4370 17d6+4440 19d12+4244 8d6+4439 14d12+4454 16d20+4225 19d20+4418 20d12+4362 19d12+4431
5369 8
13d10+5267 18d12+5194 13d4-2473 20d10+7615 19d20 15d20+5176 18d6+5333 3d8+5363
4476 2
15d4-9215 18d20+4307
6059 10
8d12+5977 17d4+1920 19d20+5967 9d4+6039 20d4 16d6+6019 8d20+5994 6d6 6d12+6052 11d20+5919
1802 4
17d20 15d10 17d20+1591 6d20-1362
2894 7
11d12+2833 17d6+2873 20d12+2841 17d12 9d10+2885 8d20 15d10+2866
7509 7
7d20+7425 4d12-6020 14d20+7484 11d20+7370 19d10+7446 10d10+7441 20d12+7387
7179 10
10d10 18d4+7127 6d8 2d12+7170 7d10+1906 6d20 9d10-6428 6d10+7143 15d12+7153 17d20+7132
9785 6
4d20+9732 20d6+9722 3d8 14d12+9744 1d4+9782 14d6+9728
6672 4
11d12+6638 18d12 18d20+6360 4d20
8875 10
19d20+8796 9d20+8721 11d12+8781 15d20+8804 13d8+8779 13d10-1124 8d10 9d20+8798 9d8+8812 14d12+8779
7425 4
2d12+7336 18d8+7316 12d10+7346 14d12+6421
9263 2
13d12+9180 15d6-1123
1283 2
9d12+9853 1d6+1278
9637 9
13d12 20d6+9555 16d8+9588 1d20+4633 19d8+9605 20d12 11d20+9486 7d20+9558 17d20+9469
7683 8
20d20+7360 14d20+7581 8d8+7624 20d10 18d10+7565 10d12+7597 1d20 15d20+7605
8734 5
16d20+8633 5d12+8709 13d20+8563 11d12+8618 13d20+8557
4952 3
6d8+4920 11d6+4921 8d10+456
1222 6
13d20+1014 12d20-1182 20d10+1088 20d20+1087 20d12+984 12d12
6630 2
11d10+6531 9d20+6547
624 9
11d8+552 18d12 20d20+388 4d12 13d10+544 11d20+436 5d10-9831 2d4 2d8
7771 5
20d4+7706 11d6 6d10+7730 17d20 12d12+7647
5413 2
5d20+5345 6d20+5397
5662 4
20d4+5597 16d12 16d20+5598 9d12
7775 4
15d4+7747 8d10+7705 12d20+7646 16d4+7711
6997 8
16d8+6975 10d4+6984 16d20+6687 1d8 16d4+6977 4d8+6969 7d6+6980 18d10-6945
9289 7
13d4+9245 12d10+2370 8d6+9276 2d20+9257 20d10-9565 12d4+9270 4d6
4371 5
20d20+4046 20d10+4311 10d20+4344 16d8+4334 14d20+4155
8217 7
15d12+8116 16d12+8168 5d8+8212 18d20+8179 12d20-6012 13d12+8094 14d6
3282 5
14d12+3227 14d6+3241 18d20+3115 16d12+3129 18d8+296
39 6
17d8 8d6 12d4 6d8 10d4 18d4
5662 4
13d4+5640 19d8+5585 15d20+5511 13d20+5472
229 10
17d20 20d20 15d20 18d20 13d20 15d20 14d20 20d12 14d20 8d20+142
3980 3
19d4 7d20+3971 14d20+3956
7179 3
13d20+7086 18d20+7109 11d10+1806
3843 4
5d10 3d10 7d10-5621 14d20
3991 8
3d10+3980 15d10+3943 4d10+3975 15d10+3946 8d12+3915 16d10+3852 13d4+3940 19d20
9393 2
5d4-3464 11d10+9323
8726 6
15d20 8d20+8596 16d8 16d10+8639 11d8+8713 14d8+8688
1321 2
15d20+1195 9d10+1235
8323 7
18d20+7999 8d8 3d10 13d8+8270 18d8+8228 5d12+8294 16d20+8286
1176 7
15d20+957 17d4+8175 6d12+1115 19d20 7d20+1123 19d6-2879 16d8+1084
629 8
9d4+614 15d6+602 9d8 20d20+376 18d8+589 4d20+1430 18d10+578 8d20+520
8597 7
14d8+8498 19d10+8498 19d8+8469 16d10+8542 6d20+8562 15d10 19d10+8532
9927 9
12d6-8467 4d20+9854 7d6+9911 8d12+9913 16d4+9909 20d12 1d6+9923 1d6-4825 15d6
5824 10
16d12+5684 11d10+5723 14d20+5579 7d20+5774 16d10+5716 4d4 17d20+5602 19d12+5788 15d8 17d20+5709
3610 9
14d6+3530 4d6+3590 8d12+3551 13d4 4d10 14d8+3504 20d20+3481 18d10+3500 14d20+3426
7877 9
19d20+7656 18d20+7850 16d6+7819 15d4+7835 20d10-1623 17d10+7739 20d20+7803 9d12-1827 5d10+7861
2423 3
18d20-3324 12d8+2348 20d8+2338
9114 2
19d8+9016 1d4
6703 8
19d8+6664 13d10+6584 15d12+6590 9d12 19d20+6558 12d20+6540 1d8 15d12+6573
4560 6
8d20+4425 12d4-2709 19d10+4445 10d6+4506 17d6+4480 9d20+4515
1870 8
6d10+1853 7d10+1829 10d20+1752 1d8-2173 10d4+1840 19d10+1778 11d8+1808 19d20+1585
1245 7
5d4+1232 16d12 13d20+988 18d20+1049 5d6+1218 18d20+1114 15d4
8432 9
17d12+8357 19d4 6d10+8381 2d8 3d8 20d6+8347 12d8+8385 17d6-9914 18d10+8349
6569 3
3d4-2263 9d8-7923 14d10+6539
6412 4
20d20+6196 1d20 16d20+6137 18d20+6277
8148 8
17d6+8064 19d20+7920 20d8+8018 10d6 7d8-8700 11d4+8110 12d10+8050 7d4+6055
6944 8
11d8 16d8 17d20+6729 15d10+6922 8d20+6812 19d10+6896 9d8-8211 17d10+6846
5850 2
8d12 18d8
6566 3
11d4+6528 18d8+6449 16d20+6394
8359 10
19d6+8272 8d10+8284 18d10+8187 6d10+8309 17d6+8300 16d20+8332 12d20-750 2d10+8345 5d20 15d12+8286
3913 7
9d20+3884 6d20+3799 12d20+3709 12d6+3878 17d12+5984 18d8-4170 20d12+3888
4461 10
7d8+4410 19d20+4159 20d20+4292 4d12+4433 11d6+4433 2d8 13d20+4420 8d6+4429 8d20+4346 20d8+4390
4862 6
10d8+4814 4d12+4839 10d12+4769 18d10+4821 19d12+4788 20d20+4661
2141 6
15d20+1846 20d4+2086 3d8+807 10d6+2118 9d4+610 20d20
585 3
8d8+531 20d20 17d10+433
3192 9
18d20+3498 3d12+3175 12d20+3138 20d4+3144 18d12+3144 18d12+3060 9d20+3039 2d12 16d6+7271
5856 6
19d8+5758 20d10+5714 10d10+5818 18d12+5739 3d10+5834 17d12+5691
7003 10
18d6+6960 7d20+6911 17d12+6962 14d20+6841 6d8 11d6+6958 1d10+2111 10d12-2513 16d20+6929 7d10+6987
7087 4
5d10+7066 6d10 11d4+7045 17d20+7040
1962 10
1d8-765 18d12+1770 1d6 20d8+1924 9d10+1914 20d20+1720 10d20+1869 14d10+1856 17d8+1930 17d8+1836
3221 6
15d6+3206 19d20+3198 19d8+3157 18d20+3099 3d12+3195 3d12+3192
3014 6
19d4+2947 1d6-5250 4d20+2980 2d8-1431 20d20+2910 14d12
7772 4
3d20+7713 11d10+7684 7d6-8128 18d8+7677
6256 10
17d8+6133 8d12 19d12+6117 17d12+6115 17d12+6079 20d20+5987 15d10+6165 17d12+6158 13d20+6191 15d20+5976
3505 2
15d8+3460 4d20+3474
6396 2
16d4+6357 12d4+6375
5450 2
10d10+5374 4d8
4757 3
18d10+4603 15d20+4656 16d4
9181 6
18d10+9131 15d12+9324 13d6+9164 3d10+9170 17d4+346 13d20+9030
5409 6
16d6+5352 15d20+5205 8d20+5345 8d6+5384 6d8 17d12+5258
6721 8
7d12+6710 11d12+4386 4d12+6712 4d4 15d20+6429 14d20+6533 14d6+6661 16d6+6685
1439 2
14d8+1332 8d12
3640 6
11d20+3438 19d20+3260 7d6 2d6-9101 20d20+3474 8d12+7856
3993 4
17d8 8d10+3964 14d12+3910 4d20+3978
2975 8
16d8+2897 9d6-9866 16d6+2885 19d12+2953 6d10+2919 12d20+2849 19d8+2835 16d20+2953
4506 5
7d6+4492 15d20+4263 17d10+4394 14d6+4466 17d20+4297
6221 5
9d6+6188 17d8+6117 7d10 17d8 14d20+5954
1842 6
15d6+1753 10d20+1748 13d4+1819 20d20+1717 15d12+1751 14d12
3283 2
12d12+3251 16d20+3130
893 5
19d20+757 14d20+692 16d20+668 19d8+762 17d12+809
6434 10
5d20+6394 16d8+6321 13d12+6334 2d8 10d6+6383 7d20 17d20+6125 20d20+6221 8d8+4466 9d10
9760 3
6d20+9655 17d8+9739 2d10
8771 8
10d20+8593 15d20+8743 13d4+8726 15d10 20d10+8612 17d6-8927 8d10+8692 11d12+8652
8299 5
18d6+8258 19d8+8271 7d4-8978 18d6+5481 13d4+8272
9174 3
16d4 6d10+836 16d12+9057
6815 5
1d10+6812 14d10 15d6 19d12+6771 15d6+6741
156 7
17d10 20d10 12d20 20d20 16d20 17d10 17d10
3961 2
16d12+3769 20d12+3768
4259 4
8d20+4200 13d12-1964 13d8+4175 16d12+4653
3904 7
17d8+3787 19d12+3758 7d4-6104 11d20 4d6-2438 17d10+3849 14d6+3849
1751 5
6d12 11d10+1657 17d10+1678 14d20+228 14d4+1726
3048 2
3d8 2d20+3032
4854 4
18d12+4813 15d20+4734 12d8-5995 10d12+4751
6911 5
8d12 15d20+6732 9d8 4d10-7300 10d4+6892
5618 9
6d8+5582 15d10 13d6+1601 16d10+5484 9d6+5575 17d12+5539 14d20 19d10+5519 15d10+1880
8140 4
18d12+8070 5d10+8105 10d6+8110 19d12+8096
5224 5
5d20 12d6+5191 5d20-6040 4d20+5154 12d6+6095
3178 9
15d4 7d12+3153 17d20+2873 7d20+3043 20d10+3095 19d10+3013 10d12+3155 15d10+3028 18d8+3082
6439 10
12d10+6401 8d20 16d6+6423 14d20+6226 20d12+6280 13d4+6396 6d20+6322 16d6+6350 16d8+6352 16d20+6390
7177 3
19d20+7111 16d4 13d12+7135
7028 5
6d20 15d20+6759 17d10+6873 6d6+7007 8d6+6990
4206 10
20d6 17d10+4179 9d4-199 6d20+4148 14d12+4156 14d6+4126 19d20+3908 13d20+4125 16d20+3977 8d10+4159
7861 5
20d10-7120 12d20+7831 11d20+7706 6d8+7827 3d20+7820
155 9
11d20 9d20 16d12 11d20 8d20 18d20 19d10 13d20 17d20
6275 4
8d4+7553 18d20+5931 2d6 7d12+2491
1785 9
15d12+1607 15d10+1732 8d6-5455 13d20+1544 17d4+1740 19d20+1482 10d12+1682 19d10+1630 15d10+1745
6415 3
17d6+6341 20d20+6383 19d4
8256 6
18d4+8232 17d8+8220 18d6+8218 18d12+8064 9d20+8237 16d12+8238
6798 8
12d6+6754 19d4+6722 14d6+9102 17d20+6590 10d10+6714 17d8+6694 8d10+6751 11d12+6698
3827 7
18d20+3514 11d10+3796 16d10+3705 18d12+3758 13d8 19d20+3520 2d6+3821
1814 8
6d12+1804 13d12+1787 14d8+1765 19d8 20d20+1552 11d20 16d12+1760 18d10+1674
3198 6
13d4+3165 14d10+3150 16d20+2973 12d8-8903 18d12+3040 18d8+3078
2808 10
5d20 16d10+2791 17d6+2756 7d12+2743 16d6 5d4-5122 18d4 2d8+6797 18d20+2612 16d8+2700
5113 8
17d20+5040 11d10+5007 12d20+4941 10d8+5056 14d20+4842 16d20+5015 19d20+4808 15d20+4863
4457 10
19d8+4322 15d20+4188 8d10 10d20-7637 6d8+4430 9d8-884 16d4+4409 1d12+5271 9d20+4343 18d12+4394
1828 6
12d4+1794 17d20+1586 19d12+1754 12d10+1754 6d8+1795 16d10-9803
4014 2
6d20+3933 4d6+9763
1365 2
12d8+1338 17d4+5039
1036 3
6d12 20d8+932 16d10+879
2348 4
12d4+2319 7d10+2316 18d8+6651 19d20+1971
4755 5
10d12+4693 6d8+3834 4d4 7d20+4707 10d12+4726
1810 2
2d8 14d8+1706
9141 3
6d8+9114 14d20+9014 17d4+9088
4175 3
12d12+4068 18d8+4078 14d4+4148
1370 2
12d10+1284 19d12+1302
4597 3
16d12+4405 20d8 4d20
4548 6
8d12 18d20+4330 2d20+4534 20d8 17d20+5265 20d20+4451
9812 9
11d10 16d20+9695 17d12+9628 20d20+9634 20d10+9640 4d8+9407 2d4-7349 17d20+9610 19d10+9759
2931 9
18d10+2758 15d6+2849 15d20+2711 15d12+2812 18d6+2603 13d12+2790 10d6-8589 17d12+2825 3d20+2880
7779 5
12d12+7712 15d20+7668 12d20+7588 18d20+7759 10d10+7738
1019 8
8d12+1000 10d20+1005 10d8+997 11d4+986 20d12+782 8d20+961 7d20+7535 11d12+998
4344 4
17d20+4152 9d20+4202 7d20+4238 6d20+4319
5401 8
15d12+5358 12d20+5208 14d6-5510 14d10+5308 16d6 14d12+5304 17d8+5349 14d4+5378
7496 9
14d6+7423 19d12+7278 17d6+7442 12d20+7470 13d12+7344 18d20+7418 5d4 7d12+7481 14d12+7334
3847 7
19d10+3735 19d20+3629 4d10+3834 12d8+3777 11d4 9d8+3838 20d20+3621
5061 2
17d20+4903 9d6+5031
4045 4
18d6+4007 19d8+3902 8d6 19d20+3677
6662 5
19d20+6606 3d8 11d20+6554 19d6 15d20-9870
4617 5
2d20+3320 9d12+4539 20d10+4574 4d4+2398 3d20
571 5
17d8 14d12+512 10d20+407 14d8+549 11d6+1972
3133 8
17d20+3038 6d10 20d12+3113 15d8+3040 11d6+3068 7d4 8d12+3101 20d10+3011
2874 5
15d6+2854 5d4 8d20+5747 14d6+2842 6d20+2817
9395 7
18d8+9348 17d12+9233 7d6+9365 14d12+9244 12d20+9360 19d12+9231 10d10+9331
3202 9
9d20-5562 15d4+3142 19d4+3146 1d12-5963 20d8+3113 4d20+3197 4d10-5026 1d12 6d20+3100
5678 10
18d12+5551 14d12+5514 7d8+5664 9d8+5622 20d12+5483 20d12+5579 11d10+5655 19d12+5596 9d6 18d12+5500
6947 9
15d20+6868 5d8+6913 15d12+4312 14d8-7110 16d6 19d8+6904 17d20+6840 12d6+6897 20d8+6927
4718 2
19d8 5d6
7102 3
17d8+7037 11d10+7026 17d12+6929
7299 2
19d20+7022 13d6
122 10
19d10 15d10 12d12 17d12 14d12 14d12 14d20 13d20 18d20 18d8
1212 9
12d8+1134 8d8+1181 18d20+918 19d20+905 15d8-3387 18d12+2472 6d10+1201 11d10 12d6+1161
5019 5
13d6+5003 10d8+4998 17d12+9769 16d10+4912 13d10+945
4136 5
3d20+4092 19d10-7004 14d20+3949 20d20+3979 3d12+4124
1123 10
11d20+932 1d20+1107 20d10+939 18d6 1d8+5809 9d20+979 5d8-6916 9d6 11d20+1000 4d8+1117
3238 9
17d4+3205 14d20+3214 8d20+3204 10d20+3190 20d20 11d12+3154 6d12 17d12+3145 6d20+3178
3492 3
6d10+3469 16d20+3297 10d20+3362
3822 10
9d6 17d10+3719 19d8+3706 17d6+3762 16d20+3660 18d4+5115 17d10 17d4+3761 10d10+3788 4d20+3785
408 2
15d10 9d10
2869 9
9d20+2822 6d12 18d8+2725 19d12+2649 3d20+2818 9d12-7828 20d20+2604 18d12+2679 7d8
220 8
20d12 19d12 15d20 13d20 19d6-6296 19d12 20d12 11d20
3542 4
15d10+3478 10d12+3501 16d10+3394 9d8-2747
7404 6
7d10-7720 19d12 7d8-9070 20d12+7220 12d12+7331 6d8+7381
5467 9
17d20+5158 11d20+5374 19d6+5376 16d12 14d20+5347 4d4+1365 17d20+5423 16d8-398 16d20+5342
3240 4
18d20+3023 16d12+3203 1d10 9d6+3198
9133 9
2d20+5919 12d6-7845 5d20+9044 12d6+9117 14d10+9079 10d8-3094 11d6 11d12+9003 14d6-824
9734 5
17d12+9645 20d10+9675 14d12+9684 14d12+9611 19d20+9571
1377 4
20d12+1304 10d20-1705 16d10+1310 5d12+1364
5460 5
11d8+5202 13d10+5375 13d10-2783 18d10+5296 9d4+5450
1631 5
20d20+1433 15d8 18d12+1584 1d6-6357 17d4-415
5032 3
9d8+5010 8d12+5008 17d20+4870
1592 8
17d4+1543 2d12+1583 18d10+1475 16d4 11d20 20d10-3082 10d20+1487 5d4-664
3111 9
4d8 20d10+3075 6d20+9571 11d12-7337 1d12 1d4 13d20+2971 13d6+3070 18d8+3063
1539 10
17d8-3631 3d20+1506 9d6+6084 6d12+1531 4d10-8803 14d8 15d20+1338 10d6+976 19d10+1353 5d10+1504
7186 10
12d20+7038 11d8+7122 10d8+7144 18d20+7125 20d8 20d20+7090 8d8+7172 20d4+7112 4d12+524 20d10+7119
7555 5
11d10+7518 5d4+4342 17d20+7326 7d8+4181 12d12+119
3806 6
17d20+3471 19d8+3683 19d4-8063 13d6+3730 20d20+3710 3d8+8779
488 5
6d8+440 16d20+270 6d20 15d12+337 12d12+402
40 3
10d4 5d8 2d20
3149 6
13d20+3017 14d20+2956 19d10 16d20+2888 6d20+3082 19d20+3086
7710 3
14d20+7535 20d20+7394 13d10+7600
7104 7
10d4+7069 18d12+7034 19d4+7082 3d8-3463 19d12+7083 15d6-855 12d8+7014
5758 5
16d20+5592 18d10+5708 6d12+5749 7d10+5743 11d6
7929 5
7d8 15d8+7824 2d4 10d6 12d4+7899
7591 5
13d20+7561 5d6-3830 17d10+7560 11d20+7466 20d12+7421
4046 8
4d8-4491 19d12+4014 1d12 12d20+3991 7d20+3962 19d20+3865 14d10+3936 20d10+3881
9048 3
19d10+8887 15d10+8908 9d8
9764 8
18d8+9692 10d6 6d10+9733 16d8+9744 7d8+9730 13d20+9536 17d20+9488 20d20+9735
5715 2
15d12+5639 3d12
7395 6
16d8+7304 20d20+7053 9d6 14d10+7347 9d12+7315 6d4-8569
1180 6
19d12+972 11d20+1093 8d8+1160 17d10+1010 3d20 3d8
7651 7
15d10+7597 19d20+7380 16d20+7588 6d10-6177 16d6+7582 19d12+7541 13d12+7571
10 2
10d6-10 1d6+1
1153 5
2d10 20d20+1016 3d6+5323 9d20+1119 6d12+1123
3961 4
15d12+298 18d12+3876 13d20+3724 8d12+3952
5766 3
20d10+5617 10d20-8371 18d10+5588
7266 9
16d10+7199 8d12+7253 12d20+7252 9d20+7127 11d4 18d20+7072 15d20+7213 14d20+7241 19d20+6887
1171 3
13d6+1116 1d4 18d20+909
1803 3
5d20 15d12+1771 7d12+1739
4130 2
9d20+3971 17d10+4043
1462 2
9d8+1405 2d4+8501
6666 6
3d12+6647 15d20+6491 16d12+6633 5d6 4d4+6658 14d8-7573
112 3
10d12 12d10 11d20
6143 3
8d20+6065 5d8+6104 20d10+5986
7174 6
8d4+7164 17d20+7094 18d10+7009 3d12+890 20d10+6990 9d8+7144
549 3
11d4+523 6d12 19d6
7571 6
13d20+7489 7d20+7448 16d20+7304 9d12 1d10 4d4+9552
8 3
1d4+4 2d4 3d4-4
4255 7
12d20+4183 11d6+1496 15d20+3969 20d20+4196 20d12+4225 15d6+4201 4d20+4186
6761 10
12d20 20d6+6666 12d20+6579 20d10+6624 2d6+6990 13d20+6666 5d20+6700 7d10+6747 20d20+6639 11d20
5657 9
13d20+5427 8d4+5628 3d8-7886 20d20+4843 15d20-1862 12d10-6397 18d4+5639 17d10-7369 17d20+5387
7408 4
15d6+8960 12d20+7349 14d12+7318 9d20+7246
8703 7
12d10+8606 10d10+8669 13d20+8586 19d10+8672 12d12+8897 4d10 15d10+8660
9900 5
20d10+9126 7d8+9875 19d20+9641 12d20+9748 15d8
9436 3
13d20+9183 16d8+9397 16d4
9763 6
18d6-3239 12d6+9751 18d12+9741 20d20+9417 10d10+6985 7d20+9749
1384 5
10d10+1306 2d12+1377 14d10+1259 14d12+9579 15d20+1229
5801 4
18d20+5702 14d4+5778 12d4+5786 16d8+7293
881 4
19d10+771 5d12-4800 19d20+803 15d8
1290 8
20d10+1236 11d8 13d10+1184 18d10+5621 11d12-9480 15d10+1175 12d12+1174 19d12+1181
252 3
16d20 13d20 16d20
2369 8
7d20+2259 18d20+2034 16d6+2333 18d12+2256 11d8 2d4+2367 18d10+2271 5d20
9437 6
16d10+9406 3d4+9432 13d10+9361 13d6+9405 6d12-9918 10d10+9360
8913 5
20d4+8886 11d10+8844 11d4 16d20+8810 15d12+8737
7023 3
18d6 13d20+6974 13d8+6981
3903 9
17d20+3734 11d20+3766 10d20+3875 16d8 14d10+3867 17d20+3696 16d12+3748 8d12+8883 6d8-1636
9169 5
20d20+8959 11d20+8993 15d12+9059 16d8+4885 17d4+3348
2818 4
2d10+2799 20d8+2709 11d6+2769 17d20+2553
8271 7
12d10+8220 16d12+8144 3d20+8225 19d20+8056 17d12+8249 6d10 16d6+8177
2921 2
19d12+2791 13d12+2833
8011 5
15d12+7842 9d12 16d10+7867 8d10+7937 12d20+7980
7207 4
10d4 9d10-2740 19d8 19d12+7148
1619 9
1d20+4736 14d10+1557 17d20+1523 15d20+1334 19d12+1438 14d10+1484 10d10 9d4-3704 8d6
5199 6
15d8 17d12 13d6+5157 17d20+4955 8d8+5167 17d12+5016
9188 2
15d6+9118 1d20+9176
9731 6
19d12+9604 16d6-4181 16d12+9559 17d12-9880 16d6+6409 20d20+9460
5555 4
17d20+5250 19d12+5458 11d4+6138 1d4
235 2
13d20 15d20
6410 10
9d8+6371 18d6-1187 9d6+6389 6d8+9395 12d8+6349 19d20+6332 12d10+6351 8d20+6336 18d8-9532 12d20+6396
7446 3
3d10+878 12d10+7341 5d20+7399
9958 6
20d12+9877 10d6-4111 6d12+8795 9d20 18d20+9940 12d12+9862
1594 5
15d20+1393 14d10+1517 7d20+1483 17d12+1401 14d10
4857 10
6d8-2995 10d20+1869 5d6+4844 3d20-9701 9d8+4842 7d20+4807 8d6+4847 14d8+4818 7d20+4805 11d20+4744
5709 4
16d10+5568 11d4 11d8+5678 9d12+5637
7774 2
19d20+7493 16d20+7639
6180 7
3d8+6176 18d20+5941 4d4+6173 20d20+6018 18d12+6018 17d20+5980 20d8
3702 9
6d10+3667 17d12+3605 10d12+3635 11d12+3582 19d8+7770 8d8+3642 19d10+3565 20d20+3417 12d10
7340 4
6d12+7325 15d12+7264 12d20+7259 9d20+7245
9986 9
19d20+9908 8d8+9936 16d6+9923 16d20+9935 20d10+9814 2d4+8774 19d8+9922 12d4+6732 17d10+9858
3616 8
14d10+3487 16d10+3473 17d10+3573 19d8+3574 15d20+3499 2d4+3608 4d4+7185 12d4+3575
5792 7
13d8 9d10-442 10d12+5752 8d12+5714 19d20+5610 12d6+5766 19d20+5539
7318 8
20d12+7095 14d10+7234 19d8-9996 14d12+7229 15d10+7250 13d8+7280 10d8+7298 11d10
4578 4
2d6 12d10+4527 5d20+4549 4d12
6414 9
15d12+6335 5d12+6359 16d20+6334 6d10+6393 4d20+6382 19d4 20d6+6323 15d20+9761 20d6+6366
4281 8
6d8+4271 5d6-809 17d4+9713 13d12+4801 20d8+4191 15d10+4156 10d12 17d12+4132
2789 2
16d12+2645 16d12+2607
2553 5
20d20+2421 20d20+2433 14d12+2444 12d12+2470 12d20
6380 7
5d10+6352 2d20-8593 15d12+6288 2d12+6371 4d20 14d20-2071 14d6+3157
6334 10
14d8+6291 3d12+6311 5d6+6313 9d6 13d8+6284 12d10+6275 15d4+6302 18d12+6308 15d20+6129 4d8+2472
609 9
14d8-1863 2d4 14d20 18d10+483 6d4-6229 19d10+431 11d20-7109 20d8+519 12d20+525
295 2
17d20 18d20
3688 7
18d6+3604 15d8+3667 13d20+3477 8d8 20d8+3633 12d10+3622 20d12+3471
4912 2
15d20+4627 6d8+4892
2281 6
5d4+512 14d4+2235 10d12 6d8+2273 7d10 19d6+2211
889 9
17d12+4178 15d4 12d20 17d6+871 8d8+870 4d10 6d20 6d8 4d20+843
647 10
4d10-6533 18d8+595 10d4+620 8d20+602 19d6+605 2d10+8650 15d20+403 18d20+330 18d8+519 11d20+461
5787 10
18d6+5697 19d12+5732 3d10+5775 20d12 13d6-3635 14d20+5691 10d8+8203 15d10+5640 18d10-3911 10d10+5722
8788 7
4d12+8740 12d10+8697 9d6+8757 12d6 14d20+8523 8d12+8733 17d20+8620
5767 5
12d8+5702 9d20+5730 3d10+5757 20d12+5727 10d8
3725 8
2d6+3714 12d6+3656 19d8+3643 17d8+3708 17d12+3692 8d8+3689 10d12-250 15d8+3652
4928 7
3d8+4919 3d10 4d8 9d20+3179 18d12 20d20+4895 8d10+4910
9990 8
16d12+9902 16d8 18d8+9932 20d8+9943 8d4+9959 15d20+9834 12d20+9769 5d12+9967
2514 10
10d6 18d10 20d12+2452 7d12+2486 15d8+2434 5d12 10d12+2455 3d12+2500 15d20+2368 12d8+4007
2881 9
4d10 17d12+2702 13d20+2651 15d4+2859 17d12+2723 13d6+2821 14d20+2678 6d20+2779 18d20+2831
7284 9
9d8+7275 12d4 3d20+7255 19d12+7209 8d20+7191 7d20+7227 20d20+6993 5d20+7268 11d8+7241
5023 7
2d12+5021 15d20+4892 12d10+4956 16d10+5007 18d20+4960 19d20+4706 20d6+4937
2332 10
16d10 19d12+2161 5d20+2265 18d20+1996 15d12+2249 19d8+2266 13d10+2263 16d20+2294 7d10+2320 19d8+2244
4018 9
18d12+3816 8d20+7023 12d20+3963 18d10+3314 20d20+3773 18d20+3872 14d10+3988 20d20+3659 10d12+3928
7676 2
9d20+7557 19d12+7616
7062 4
20d20+6935 4d6 13d20+6956 14d10+6937
6967 7
17d10+6803 17d6+6872 19d10+6910 18d4+6942 8d20+6856 16d20+6923 13d10+6867
2244 2
13d6+2222 7d4+2227
9475 4
8d20+1979 19d20+9188 18d10+9395 12d20+9438
1283 9
13d20+1213 5d8 14d10+1256 18d4+1227 18d20+1139 12d12+1212 6d12+1273 19d4-9985 9d10+239
1999 4
15d10+1944 19d8 16d10+1908 19d8+1915
9520 3
14d12+9436 18d6+9441 15d20+9486
2064 5
1d12 6d10+2037 19d20+2005 13d10+2051 18d10+1990
2080 4
9d20+1962 5d10+2072 8d8+2060 16d12+1911
4542 4
18d10+4398 12d20+4499 12d4+4519 16d12+4466
4979 7
5d6 11d6+4945 8d8+4960 10d10+4898 13d20+4817 9d20+4849 9d10-8227
3296 10
7d8 5d8+3272 20d20+3045 12d8+3246 17d10+3129 9d20+3245 19d12 15d12+3148 16d4+3246 18d20+3152
781 6
8d8 11d8+711 19d10+673 16d20+466 16d8 18d8+640
7223 8
17d10+7105 16d12+7191 11d20+7030 9d12+7168 17d10+7092 20d20+6926 6d20+7201 8d6+4238
7649 9
20d12 14d4+7605 11d20 13d8+7606 5d10 9d20+7532 9d10+7612 19d20+7595 18d20+7451
1084 8
4d20+1061 9d20+1004 1d20+1065 14d20+1022 2d10+1067 11d8+1033 17d20+838 15d6+998
6478 10
5d6+6451 17d10-3791 17d12+6313 17d8 12d10 18d12-5714 18d10+6455 18d6+6449 19d20+6420 13d6+6454
949 8
15d20+827 9d10 15d10+868 4d20+906 8d6-9964 16d10+920 19d20+745 7d12+930
926 5
20d20+781 13d6+848 5d20+897 17d10+783 8d12+863
8392 7
12d8+8323 15d20+8377 6d20-7152 17d20+8159 14d12+8243 5d4+8372 4d10-3216
3164 6
17d4 20d8+3032 18d8+3076 8d20+3116 11d10+3082 8d4+3140
1193 4
18d8+1131 20d10+1083 7d20+1087 20d10+1079
6070 6
20d8+5918 17d10 9d20 11d12+6022 15d20+5783 19d12+6025
5467 3
17d10+5393 18d12+5327 17d8
3205 6
5d20+3165 9d10+3146 3d6+110 20d6+3146 2d6+3202 19d8+3167
1522 10
19d4+1459 16d4+1487 12d10+1487 15d8+1442 10d6+1493 17d20+1485 15d10+9557 6d12+8206 17d6 17d20+1234
2451 8
19d10+2367 13d8+2351 16d8+2347 10d8+2432 8d10+2416 19d12+2348 6d12-6549 17d20+2295
9377 3
15d8+9281 4d12+9333 8d20
1837 4
15d12+1735 14d4+1817 6d8+1805 9d20
2060 5
17d4+2007 14d20+2036 6d4+9943 4d10 3d20+2037
3200 4
18d10+3028 17d10+3137 8d10 17d20+2950
603 7
14d20+518 1d12 18d20-2891 17d12-568 9d8+590 7d8 12d8+575
5441 6
18d10+5262 19d20+5417 19d20+5256 9d8+5432 3d10-7754 15d12+5368
5081 7
15d12+4985 18d8+4937 18d20+4953 19d4+5052 6d8+5039 18d12+4923 13d20+8525
6860 10
20d8+6726 17d20+6619 1d6 17d8+6745 14d20+6660 7d8+6846 5d8+6850 20d20+6819 11d6 10d20+6826
7813 6
3d20+7763 16d12+7697 8d10+7772 2d10+7806 18d20+7490 7d20+9864
9269 2
16d8+9155 15d12
4545 7
7d4+3535 12d12+4412 9d10+4508 13d12 16d10+4418 20d20+4157 16d10+4392
9555 3
11d12+9486 9d8 8d8+9500
